[
    {
        "%vlocity_namespace%__DomainObjectAPIName__c": "json",
        "%vlocity_namespace%__DomainObjectCreationOrder__c": 0,
        "%vlocity_namespace%__DomainObjectFieldAPIName__c": "Oppty",
        "%vlocity_namespace%__FilterGroup__c": 0,
        "%vlocity_namespace%__FilterOperator__c": "=",
        "%vlocity_namespace%__FilterValue__c": "Id",
        "%vlocity_namespace%__GlobalKey__c": "5ec72e5b-a793-ee22-02ea-984b298de095",
        "%vlocity_namespace%__InterfaceFieldAPIName__c": "Id",
        "%vlocity_namespace%__InterfaceObjectLookupOrder__c": 1,
        "%vlocity_namespace%__InterfaceObjectName__c": "Opportunity",
        "%vlocity_namespace%__IsDisabled__c": false,
        "%vlocity_namespace%__IsRequiredForUpsert__c": false,
        "%vlocity_namespace%__MapId__c": "Opty Discount Extract - UpdateCustom1647",
        "%vlocity_namespace%__UpsertKey__c": false,
        "Name": "Oppty Discount Extract - Update",
        "VlocityDataPackType": "SObject",
        "VlocityRecordSObjectType": "%vlocity_namespace%__DRMapItem__c"
    },
    {
        "%vlocity_namespace%__DomainObjectAPIName__c": "json",
        "%vlocity_namespace%__DomainObjectCreationOrder__c": 0,
        "%vlocity_namespace%__DomainObjectFieldAPIName__c": "Oppty:FrameContract",
        "%vlocity_namespace%__FilterGroup__c": 0,
        "%vlocity_namespace%__FilterOperator__c": "=",
        "%vlocity_namespace%__FilterValue__c": "Id",
        "%vlocity_namespace%__GlobalKey__c": "117cfd1b-be7f-a471-c4a5-b1d6aac49876",
        "%vlocity_namespace%__InterfaceFieldAPIName__c": "%vlocity_namespace%__OpportunityId__c",
        "%vlocity_namespace%__InterfaceObjectLookupOrder__c": 2,
        "%vlocity_namespace%__InterfaceObjectName__c": "Contract",
        "%vlocity_namespace%__IsDisabled__c": false,
        "%vlocity_namespace%__IsRequiredForUpsert__c": false,
        "%vlocity_namespace%__MapId__c": "Opty Discount Extract - UpdateCustom5074",
        "%vlocity_namespace%__UpsertKey__c": false,
        "Name": "Oppty Discount Extract - Update",
        "VlocityDataPackType": "SObject",
        "VlocityRecordSObjectType": "%vlocity_namespace%__DRMapItem__c"
    },
    {
        "%vlocity_namespace%__DomainObjectAPIName__c": "json",
        "%vlocity_namespace%__DomainObjectCreationOrder__c": 0,
        "%vlocity_namespace%__DomainObjectFieldAPIName__c": "Oppty:FrameContract",
        "%vlocity_namespace%__FilterGroup__c": 0,
        "%vlocity_namespace%__FilterOperator__c": "=",
        "%vlocity_namespace%__FilterValue__c": "'Draft'",
        "%vlocity_namespace%__GlobalKey__c": "fbef37e8-b666-5bde-5ce0-b1cb9c43abb7",
        "%vlocity_namespace%__InterfaceFieldAPIName__c": "Status",
        "%vlocity_namespace%__InterfaceObjectLookupOrder__c": 2,
        "%vlocity_namespace%__InterfaceObjectName__c": "Contract",
        "%vlocity_namespace%__IsDisabled__c": false,
        "%vlocity_namespace%__IsRequiredForUpsert__c": false,
        "%vlocity_namespace%__MapId__c": "Opty Discount Extract - UpdateCustom1540",
        "%vlocity_namespace%__UpsertKey__c": false,
        "Name": "Oppty Discount Extract - Update",
        "VlocityDataPackType": "SObject",
        "VlocityRecordSObjectType": "%vlocity_namespace%__DRMapItem__c"
    },
    {
        "%vlocity_namespace%__DomainObjectAPIName__c": "json",
        "%vlocity_namespace%__DomainObjectCreationOrder__c": 0,
        "%vlocity_namespace%__DomainObjectFieldAPIName__c": "Oppty:FrameContract:Version",
        "%vlocity_namespace%__FilterGroup__c": 0,
        "%vlocity_namespace%__FilterOperator__c": "=",
        "%vlocity_namespace%__FilterValue__c": "Oppty:FrameContract:Id",
        "%vlocity_namespace%__GlobalKey__c": "92aba042-7cd5-ffbb-4735-d4aca5f51a0d",
        "%vlocity_namespace%__InterfaceFieldAPIName__c": "%vlocity_namespace%__ContractId__c",
        "%vlocity_namespace%__InterfaceObjectLookupOrder__c": 3,
        "%vlocity_namespace%__InterfaceObjectName__c": "%vlocity_namespace%__ContractVersion__c",
        "%vlocity_namespace%__IsDisabled__c": false,
        "%vlocity_namespace%__IsRequiredForUpsert__c": false,
        "%vlocity_namespace%__MapId__c": "Oppty Discount Extract - UpdateCustom3904",
        "%vlocity_namespace%__UpsertKey__c": false,
        "Name": "Oppty Discount Extract - Update",
        "VlocityDataPackType": "SObject",
        "VlocityRecordSObjectType": "%vlocity_namespace%__DRMapItem__c"
    },
    {
        "%vlocity_namespace%__DomainObjectAPIName__c": "json",
        "%vlocity_namespace%__DomainObjectCreationOrder__c": 0,
        "%vlocity_namespace%__DomainObjectFieldAPIName__c": "Oppty:FrameContract:Version",
        "%vlocity_namespace%__FilterGroup__c": 0,
        "%vlocity_namespace%__FilterOperator__c": "=",
        "%vlocity_namespace%__FilterValue__c": "'Active'",
        "%vlocity_namespace%__GlobalKey__c": "f6032b3b-4c5d-c0ec-1e91-6fdf0cd6bf9a",
        "%vlocity_namespace%__InterfaceFieldAPIName__c": "%vlocity_namespace%__Status__c",
        "%vlocity_namespace%__InterfaceObjectLookupOrder__c": 3,
        "%vlocity_namespace%__InterfaceObjectName__c": "%vlocity_namespace%__ContractVersion__c",
        "%vlocity_namespace%__IsDisabled__c": false,
        "%vlocity_namespace%__IsRequiredForUpsert__c": false,
        "%vlocity_namespace%__MapId__c": "Oppty Discount Extract - UpdateCustom353",
        "%vlocity_namespace%__UpsertKey__c": false,
        "Name": "Oppty Discount Extract - Update",
        "VlocityDataPackType": "SObject",
        "VlocityRecordSObjectType": "%vlocity_namespace%__DRMapItem__c"
    },
    {
        "%vlocity_namespace%__DomainObjectAPIName__c": "json",
        "%vlocity_namespace%__DomainObjectCreationOrder__c": 0,
        "%vlocity_namespace%__DomainObjectFieldAPIName__c": "Oppty:FrameContract:Version:Discount",
        "%vlocity_namespace%__FilterGroup__c": 0,
        "%vlocity_namespace%__FilterOperator__c": "<>",
        "%vlocity_namespace%__FilterValue__c": "'Deactivate'",
        "%vlocity_namespace%__GlobalKey__c": "d2a31010-acb7-ca9d-bfe7-75377c0407a9",
        "%vlocity_namespace%__InterfaceFieldAPIName__c": "%vlocity_namespace%__Action__c",
        "%vlocity_namespace%__InterfaceObjectLookupOrder__c": 4,
        "%vlocity_namespace%__InterfaceObjectName__c": "%vlocity_namespace%__OpportunityDiscount__c",
        "%vlocity_namespace%__IsDisabled__c": false,
        "%vlocity_namespace%__IsRequiredForUpsert__c": false,
        "%vlocity_namespace%__MapId__c": "Oppty Discount Extract - UpdateCustom1459",
        "%vlocity_namespace%__UpsertKey__c": false,
        "Name": "Oppty Discount Extract - Update",
        "VlocityDataPackType": "SObject",
        "VlocityRecordSObjectType": "%vlocity_namespace%__DRMapItem__c"
    },
    {
        "%vlocity_namespace%__DomainObjectAPIName__c": "json",
        "%vlocity_namespace%__DomainObjectCreationOrder__c": 0,
        "%vlocity_namespace%__DomainObjectFieldAPIName__c": "Oppty:FrameContract:Version:Discount",
        "%vlocity_namespace%__FilterGroup__c": 0,
        "%vlocity_namespace%__FilterOperator__c": "=",
        "%vlocity_namespace%__FilterValue__c": "'Approved'",
        "%vlocity_namespace%__GlobalKey__c": "56195935-a1fb-00c1-41fc-7223e69ddc81",
        "%vlocity_namespace%__InterfaceFieldAPIName__c": "%vlocity_namespace%__ApprovalStatus__c",
        "%vlocity_namespace%__InterfaceObjectLookupOrder__c": 4,
        "%vlocity_namespace%__InterfaceObjectName__c": "%vlocity_namespace%__OpportunityDiscount__c",
        "%vlocity_namespace%__IsDisabled__c": false,
        "%vlocity_namespace%__IsRequiredForUpsert__c": false,
        "%vlocity_namespace%__MapId__c": "Oppty Discount Extract - UpdateCustom1339",
        "%vlocity_namespace%__UpsertKey__c": false,
        "Name": "Oppty Discount Extract - Update",
        "VlocityDataPackType": "SObject",
        "VlocityRecordSObjectType": "%vlocity_namespace%__DRMapItem__c"
    },
    {
        "%vlocity_namespace%__DomainObjectAPIName__c": "json",
        "%vlocity_namespace%__DomainObjectCreationOrder__c": 0,
        "%vlocity_namespace%__DomainObjectFieldAPIName__c": "Oppty:FrameContract:Version:Discount",
        "%vlocity_namespace%__FilterGroup__c": 0,
        "%vlocity_namespace%__FilterOperator__c": "=",
        "%vlocity_namespace%__FilterValue__c": "'Contract'",
        "%vlocity_namespace%__GlobalKey__c": "41ec6498-2e34-aa98-fa93-51795c6ba62d",
        "%vlocity_namespace%__InterfaceFieldAPIName__c": "%vlocity_namespace%__DiscountType__c",
        "%vlocity_namespace%__InterfaceObjectLookupOrder__c": 4,
        "%vlocity_namespace%__InterfaceObjectName__c": "%vlocity_namespace%__OpportunityDiscount__c",
        "%vlocity_namespace%__IsDisabled__c": false,
        "%vlocity_namespace%__IsRequiredForUpsert__c": false,
        "%vlocity_namespace%__MapId__c": "Oppty Discount Extract - UpdateCustom34",
        "%vlocity_namespace%__UpsertKey__c": false,
        "Name": "Oppty Discount Extract - Update",
        "VlocityDataPackType": "SObject",
        "VlocityRecordSObjectType": "%vlocity_namespace%__DRMapItem__c"
    },
    {
        "%vlocity_namespace%__DomainObjectAPIName__c": "json",
        "%vlocity_namespace%__DomainObjectCreationOrder__c": 0,
        "%vlocity_namespace%__DomainObjectFieldAPIName__c": "Oppty:FrameContract:Version:Discount",
        "%vlocity_namespace%__FilterGroup__c": 0,
        "%vlocity_namespace%__FilterOperator__c": "=",
        "%vlocity_namespace%__FilterValue__c": "Id",
        "%vlocity_namespace%__GlobalKey__c": "2e5bc3c6-24a5-8029-19c0-d97bb30f0ef7",
        "%vlocity_namespace%__InterfaceFieldAPIName__c": "%vlocity_namespace%__OpportunityId__c",
        "%vlocity_namespace%__InterfaceObjectLookupOrder__c": 4,
        "%vlocity_namespace%__InterfaceObjectName__c": "%vlocity_namespace%__OpportunityDiscount__c",
        "%vlocity_namespace%__IsDisabled__c": false,
        "%vlocity_namespace%__IsRequiredForUpsert__c": false,
        "%vlocity_namespace%__MapId__c": "Opty Discount Extract - UpdateCustom784",
        "%vlocity_namespace%__UpsertKey__c": false,
        "Name": "Oppty Discount Extract - Update",
        "VlocityDataPackType": "SObject",
        "VlocityRecordSObjectType": "%vlocity_namespace%__DRMapItem__c"
    },
    {
        "%vlocity_namespace%__DomainObjectAPIName__c": "json",
        "%vlocity_namespace%__DomainObjectCreationOrder__c": 0,
        "%vlocity_namespace%__DomainObjectFieldAPIName__c": "Oppty:FrameContract:Version:Discount:DiscountItem",
        "%vlocity_namespace%__FilterGroup__c": 0,
        "%vlocity_namespace%__FilterOperator__c": "=",
        "%vlocity_namespace%__FilterValue__c": "Oppty:FrameContract:Version:Discount:Id",
        "%vlocity_namespace%__GlobalKey__c": "50150ddb-2411-762c-ae88-6ea89b6a7e48",
        "%vlocity_namespace%__InterfaceFieldAPIName__c": "%vlocity_namespace%__OpportunityDiscountId__c",
        "%vlocity_namespace%__InterfaceObjectLookupOrder__c": 5,
        "%vlocity_namespace%__InterfaceObjectName__c": "%vlocity_namespace%__OpportunityDiscountItem__c",
        "%vlocity_namespace%__IsDisabled__c": false,
        "%vlocity_namespace%__IsRequiredForUpsert__c": false,
        "%vlocity_namespace%__MapId__c": "Opty Discount Extract - UpdateCustom3830",
        "%vlocity_namespace%__UpsertKey__c": false,
        "Name": "Oppty Discount Extract - Update",
        "VlocityDataPackType": "SObject",
        "VlocityRecordSObjectType": "%vlocity_namespace%__DRMapItem__c"
    },
    {
        "%vlocity_namespace%__DomainObjectAPIName__c": "json",
        "%vlocity_namespace%__DomainObjectCreationOrder__c": 0,
        "%vlocity_namespace%__DomainObjectFieldAPIName__c": "Oppty:FrameContract:Version:Discount:DiscountPricing",
        "%vlocity_namespace%__FilterGroup__c": 0,
        "%vlocity_namespace%__FilterOperator__c": "=",
        "%vlocity_namespace%__FilterValue__c": "Oppty:FrameContract:Version:Discount:Id",
        "%vlocity_namespace%__GlobalKey__c": "90b4259f-2d3a-1379-a91d-710d18ef35ff",
        "%vlocity_namespace%__InterfaceFieldAPIName__c": "%vlocity_namespace%__OpportunityDiscountId__c",
        "%vlocity_namespace%__InterfaceObjectLookupOrder__c": 6,
        "%vlocity_namespace%__InterfaceObjectName__c": "%vlocity_namespace%__OpportunityDiscountPricing__c",
        "%vlocity_namespace%__IsDisabled__c": false,
        "%vlocity_namespace%__IsRequiredForUpsert__c": false,
        "%vlocity_namespace%__MapId__c": "Opty Discount Extract - UpdateCustom2038",
        "%vlocity_namespace%__UpsertKey__c": false,
        "Name": "Oppty Discount Extract - Update",
        "VlocityDataPackType": "SObject",
        "VlocityRecordSObjectType": "%vlocity_namespace%__DRMapItem__c"
    },
    {
        "%vlocity_namespace%__DomainObjectAPIName__c": "json",
        "%vlocity_namespace%__DomainObjectCreationOrder__c": 0,
        "%vlocity_namespace%__DomainObjectFieldAPIName__c": "Oppty:DeactivatedDiscounts",
        "%vlocity_namespace%__FilterGroup__c": 0,
        "%vlocity_namespace%__FilterOperator__c": "=",
        "%vlocity_namespace%__FilterValue__c": "'Deactivate'",
        "%vlocity_namespace%__GlobalKey__c": "ccad699e-16e4-cbd0-1aa1-03c90221cf7c",
        "%vlocity_namespace%__InterfaceFieldAPIName__c": "%vlocity_namespace%__Action__c",
        "%vlocity_namespace%__InterfaceObjectLookupOrder__c": 7,
        "%vlocity_namespace%__InterfaceObjectName__c": "%vlocity_namespace%__OpportunityDiscount__c",
        "%vlocity_namespace%__IsDisabled__c": false,
        "%vlocity_namespace%__IsRequiredForUpsert__c": false,
        "%vlocity_namespace%__MapId__c": "Oppty Discount Extract - UpdateCustom387",
        "%vlocity_namespace%__UpsertKey__c": false,
        "Name": "Oppty Discount Extract - Update",
        "VlocityDataPackType": "SObject",
        "VlocityRecordSObjectType": "%vlocity_namespace%__DRMapItem__c"
    },
    {
        "%vlocity_namespace%__DomainObjectAPIName__c": "json",
        "%vlocity_namespace%__DomainObjectCreationOrder__c": 0,
        "%vlocity_namespace%__DomainObjectFieldAPIName__c": "Oppty:DeactivatedDiscounts",
        "%vlocity_namespace%__FilterGroup__c": 0,
        "%vlocity_namespace%__FilterOperator__c": "=",
        "%vlocity_namespace%__FilterValue__c": "'Approved'",
        "%vlocity_namespace%__GlobalKey__c": "35ca87dd-500c-9abe-b519-144e4ddd4f21",
        "%vlocity_namespace%__InterfaceFieldAPIName__c": "%vlocity_namespace%__ApprovalStatus__c",
        "%vlocity_namespace%__InterfaceObjectLookupOrder__c": 7,
        "%vlocity_namespace%__InterfaceObjectName__c": "%vlocity_namespace%__OpportunityDiscount__c",
        "%vlocity_namespace%__IsDisabled__c": false,
        "%vlocity_namespace%__IsRequiredForUpsert__c": false,
        "%vlocity_namespace%__MapId__c": "Oppty Discount Extract - UpdateCustom7118",
        "%vlocity_namespace%__UpsertKey__c": false,
        "Name": "Oppty Discount Extract - Update",
        "VlocityDataPackType": "SObject",
        "VlocityRecordSObjectType": "%vlocity_namespace%__DRMapItem__c"
    },
    {
        "%vlocity_namespace%__DomainObjectAPIName__c": "json",
        "%vlocity_namespace%__DomainObjectCreationOrder__c": 0,
        "%vlocity_namespace%__DomainObjectFieldAPIName__c": "Oppty:DeactivatedDiscounts",
        "%vlocity_namespace%__FilterGroup__c": 0,
        "%vlocity_namespace%__FilterOperator__c": "=",
        "%vlocity_namespace%__FilterValue__c": "'Contract'",
        "%vlocity_namespace%__GlobalKey__c": "58fae714-0f77-cc58-9743-cfd4b66bcfa3",
        "%vlocity_namespace%__InterfaceFieldAPIName__c": "%vlocity_namespace%__DiscountType__c",
        "%vlocity_namespace%__InterfaceObjectLookupOrder__c": 7,
        "%vlocity_namespace%__InterfaceObjectName__c": "%vlocity_namespace%__OpportunityDiscount__c",
        "%vlocity_namespace%__IsDisabled__c": false,
        "%vlocity_namespace%__IsRequiredForUpsert__c": false,
        "%vlocity_namespace%__MapId__c": "Oppty Discount Extract - UpdateCustom7183",
        "%vlocity_namespace%__UpsertKey__c": false,
        "Name": "Oppty Discount Extract - Update",
        "VlocityDataPackType": "SObject",
        "VlocityRecordSObjectType": "%vlocity_namespace%__DRMapItem__c"
    },
    {
        "%vlocity_namespace%__DomainObjectAPIName__c": "json",
        "%vlocity_namespace%__DomainObjectCreationOrder__c": 0,
        "%vlocity_namespace%__DomainObjectFieldAPIName__c": "Oppty:DeactivatedDiscounts",
        "%vlocity_namespace%__FilterGroup__c": 0,
        "%vlocity_namespace%__FilterOperator__c": "=",
        "%vlocity_namespace%__FilterValue__c": "''",
        "%vlocity_namespace%__GlobalKey__c": "00966a40-d4b5-7a78-7966-d24ebcee250e",
        "%vlocity_namespace%__InterfaceFieldAPIName__c": "%vlocity_namespace%__EffectiveEndDate__c",
        "%vlocity_namespace%__InterfaceObjectLookupOrder__c": 7,
        "%vlocity_namespace%__InterfaceObjectName__c": "%vlocity_namespace%__OpportunityDiscount__c",
        "%vlocity_namespace%__IsDisabled__c": false,
        "%vlocity_namespace%__IsRequiredForUpsert__c": false,
        "%vlocity_namespace%__MapId__c": "Oppty Discount Extract - UpdateCustom7057",
        "%vlocity_namespace%__UpsertKey__c": false,
        "Name": "Oppty Discount Extract - Update",
        "VlocityDataPackType": "SObject",
        "VlocityRecordSObjectType": "%vlocity_namespace%__DRMapItem__c"
    },
    {
        "%vlocity_namespace%__DomainObjectAPIName__c": "json",
        "%vlocity_namespace%__DomainObjectCreationOrder__c": 0,
        "%vlocity_namespace%__DomainObjectFieldAPIName__c": "Oppty:DeactivatedDiscounts",
        "%vlocity_namespace%__FilterGroup__c": 0,
        "%vlocity_namespace%__FilterOperator__c": "=",
        "%vlocity_namespace%__FilterValue__c": "Id",
        "%vlocity_namespace%__GlobalKey__c": "efc825dd-834c-0e84-9df4-888d003f1fc3",
        "%vlocity_namespace%__InterfaceFieldAPIName__c": "%vlocity_namespace%__OpportunityId__c",
        "%vlocity_namespace%__InterfaceObjectLookupOrder__c": 7,
        "%vlocity_namespace%__InterfaceObjectName__c": "%vlocity_namespace%__OpportunityDiscount__c",
        "%vlocity_namespace%__IsDisabled__c": false,
        "%vlocity_namespace%__IsRequiredForUpsert__c": false,
        "%vlocity_namespace%__MapId__c": "Oppty Discount Extract - UpdateCustom1272",
        "%vlocity_namespace%__UpsertKey__c": false,
        "Name": "Oppty Discount Extract - Update",
        "VlocityDataPackType": "SObject",
        "VlocityRecordSObjectType": "%vlocity_namespace%__DRMapItem__c"
    },
    {
        "%vlocity_namespace%__DomainObjectAPIName__c": "Formula",
        "%vlocity_namespace%__DomainObjectCreationOrder__c": 0,
        "%vlocity_namespace%__DomainObjectFieldAPIName__c": "Formula",
        "%vlocity_namespace%__FormulaOrder__c": 1,
        "%vlocity_namespace%__FormulaResultPath__c": "FrameContractCount",
        "%vlocity_namespace%__Formula__c": "COUNTQUERY(\"SELECT count() FROM Contract WHERE OpportunityId__c = '{0}' AND Status = 'Draft'\",  Oppty:Id)",
        "%vlocity_namespace%__GlobalKey__c": "5ee26cee-b7e2-9b6e-4018-7d70dda94d2f",
        "%vlocity_namespace%__IsDisabled__c": false,
        "%vlocity_namespace%__IsRequiredForUpsert__c": false,
        "%vlocity_namespace%__MapId__c": "Opty Discount Extract - UpdateCustoma0Nf4000004AItQEAWItem0",
        "%vlocity_namespace%__UpsertKey__c": false,
        "Name": "Oppty Discount Extract - Update",
        "VlocityDataPackType": "SObject",
        "VlocityRecordSObjectType": "%vlocity_namespace%__DRMapItem__c"
    },
    {
        "%vlocity_namespace%__DomainObjectAPIName__c": "json",
        "%vlocity_namespace%__DomainObjectCreationOrder__c": 1,
        "%vlocity_namespace%__DomainObjectFieldAPIName__c": "Oppty:AccountId",
        "%vlocity_namespace%__GlobalKey__c": "e01e1f76-3127-5593-7af1-6129b501a640",
        "%vlocity_namespace%__InterfaceFieldAPIName__c": "Oppty:AccountId",
        "%vlocity_namespace%__IsDisabled__c": false,
        "%vlocity_namespace%__IsRequiredForUpsert__c": false,
        "%vlocity_namespace%__MapId__c": "Opty Discount Extract - UpdateCustoma0Nf4000004AItQEAWItem8",
        "%vlocity_namespace%__UpsertKey__c": false,
        "Name": "Oppty Discount Extract - Update",
        "VlocityDataPackType": "SObject",
        "VlocityRecordSObjectType": "%vlocity_namespace%__DRMapItem__c"
    },
    {
        "%vlocity_namespace%__DomainObjectAPIName__c": "json",
        "%vlocity_namespace%__DomainObjectCreationOrder__c": 1,
        "%vlocity_namespace%__DomainObjectFieldAPIName__c": "Oppty:DeactivatedDiscounts:EffectiveEndDate",
        "%vlocity_namespace%__GlobalKey__c": "942e3214-1fe1-251c-97f2-e806642c8ab5",
        "%vlocity_namespace%__InterfaceFieldAPIName__c": "Oppty:DeactivatedDiscounts:%vlocity_namespace%__EffectiveEndDate__c",
        "%vlocity_namespace%__IsDisabled__c": false,
        "%vlocity_namespace%__IsRequiredForUpsert__c": false,
        "%vlocity_namespace%__MapId__c": "Oppty Discount Extract - UpdateCustom9615",
        "%vlocity_namespace%__UpsertKey__c": false,
        "Name": "Oppty Discount Extract - Update",
        "VlocityDataPackType": "SObject",
        "VlocityRecordSObjectType": "%vlocity_namespace%__DRMapItem__c"
    },
    {
        "%vlocity_namespace%__DomainObjectAPIName__c": "json",
        "%vlocity_namespace%__DomainObjectCreationOrder__c": 1,
        "%vlocity_namespace%__DomainObjectFieldAPIName__c": "Oppty:DeactivatedDiscounts:Id",
        "%vlocity_namespace%__GlobalKey__c": "23887f5a-1e9a-4836-9b4b-2da7fd949a59",
        "%vlocity_namespace%__InterfaceFieldAPIName__c": "Oppty:DeactivatedDiscounts:Id",
        "%vlocity_namespace%__IsDisabled__c": false,
        "%vlocity_namespace%__IsRequiredForUpsert__c": false,
        "%vlocity_namespace%__MapId__c": "Oppty Discount Extract - UpdateCustom4166",
        "%vlocity_namespace%__UpsertKey__c": false,
        "Name": "Oppty Discount Extract - Update",
        "VlocityDataPackType": "SObject",
        "VlocityRecordSObjectType": "%vlocity_namespace%__DRMapItem__c"
    },
    {
        "%vlocity_namespace%__DomainObjectAPIName__c": "json",
        "%vlocity_namespace%__DomainObjectCreationOrder__c": 1,
        "%vlocity_namespace%__DomainObjectFieldAPIName__c": "Oppty:FrameContract:Id",
        "%vlocity_namespace%__GlobalKey__c": "5cfd9086-c0c3-5546-9939-5714a04173ee",
        "%vlocity_namespace%__InterfaceFieldAPIName__c": "Oppty:FrameContract:Id",
        "%vlocity_namespace%__IsDisabled__c": false,
        "%vlocity_namespace%__IsRequiredForUpsert__c": false,
        "%vlocity_namespace%__MapId__c": "Opty Discount Extract - UpdateCustoma0Nf4000004AItQEAWItem28",
        "%vlocity_namespace%__UpsertKey__c": false,
        "Name": "Oppty Discount Extract - Update",
        "VlocityDataPackType": "SObject",
        "VlocityRecordSObjectType": "%vlocity_namespace%__DRMapItem__c"
    },
    {
        "%vlocity_namespace%__DomainObjectAPIName__c": "json",
        "%vlocity_namespace%__DomainObjectCreationOrder__c": 1,
        "%vlocity_namespace%__DomainObjectFieldAPIName__c": "Oppty:FrameContract:Status",
        "%vlocity_namespace%__GlobalKey__c": "4a8dbf2b-3a80-65c0-b05e-2bb7bb01f695",
        "%vlocity_namespace%__InterfaceFieldAPIName__c": "Oppty:FrameContract:Status",
        "%vlocity_namespace%__IsDisabled__c": false,
        "%vlocity_namespace%__IsRequiredForUpsert__c": false,
        "%vlocity_namespace%__MapId__c": "Opty Discount Extract - UpdateCustoma0Nf4000004AItQEAWItem29",
        "%vlocity_namespace%__UpsertKey__c": false,
        "Name": "Oppty Discount Extract - Update",
        "VlocityDataPackType": "SObject",
        "VlocityRecordSObjectType": "%vlocity_namespace%__DRMapItem__c"
    },
    {
        "%vlocity_namespace%__DomainObjectAPIName__c": "json",
        "%vlocity_namespace%__DomainObjectCreationOrder__c": 1,
        "%vlocity_namespace%__DomainObjectFieldAPIName__c": "Oppty:FrameContract:Version:Discount:AppliesToAllItems",
        "%vlocity_namespace%__GlobalKey__c": "84d60a44-d689-7ba0-72aa-7392e407d4f1",
        "%vlocity_namespace%__InterfaceFieldAPIName__c": "Oppty:FrameContract:Version:Discount:%vlocity_namespace%__AppliesToAllItems__c",
        "%vlocity_namespace%__IsDisabled__c": false,
        "%vlocity_namespace%__IsRequiredForUpsert__c": false,
        "%vlocity_namespace%__MapId__c": "Oppty Discount Extract - UpdateCustom5868",
        "%vlocity_namespace%__UpsertKey__c": false,
        "Name": "Oppty Discount Extract - Update",
        "VlocityDataPackType": "SObject",
        "VlocityRecordSObjectType": "%vlocity_namespace%__DRMapItem__c"
    },
    {
        "%vlocity_namespace%__DomainObjectAPIName__c": "json",
        "%vlocity_namespace%__DomainObjectCreationOrder__c": 1,
        "%vlocity_namespace%__DomainObjectFieldAPIName__c": "Oppty:FrameContract:Version:Discount:Description",
        "%vlocity_namespace%__GlobalKey__c": "717cae85-7d48-81e1-862f-13fa69885d17",
        "%vlocity_namespace%__InterfaceFieldAPIName__c": "Oppty:FrameContract:Version:Discount:%vlocity_namespace%__Description__c",
        "%vlocity_namespace%__IsDisabled__c": false,
        "%vlocity_namespace%__IsRequiredForUpsert__c": false,
        "%vlocity_namespace%__MapId__c": "Opty Discount Extract - UpdateCustoma0Nf4000004AItQEAWItem10",
        "%vlocity_namespace%__UpsertKey__c": false,
        "Name": "Oppty Discount Extract - Update",
        "VlocityDataPackType": "SObject",
        "VlocityRecordSObjectType": "%vlocity_namespace%__DRMapItem__c"
    },
    {
        "%vlocity_namespace%__DomainObjectAPIName__c": "json",
        "%vlocity_namespace%__DomainObjectCreationOrder__c": 1,
        "%vlocity_namespace%__DomainObjectFieldAPIName__c": "Oppty:FrameContract:Version:Discount:DiscountItem:CatalogCategoryId",
        "%vlocity_namespace%__GlobalKey__c": "f730c5fb-a284-82e0-e3f5-a5d2704f029f",
        "%vlocity_namespace%__InterfaceFieldAPIName__c": "Oppty:FrameContract:Version:Discount:DiscountItem:%vlocity_namespace%__CatalogCategoryId__c",
        "%vlocity_namespace%__IsDisabled__c": false,
        "%vlocity_namespace%__IsRequiredForUpsert__c": false,
        "%vlocity_namespace%__MapId__c": "Opty Discount Extract - UpdateCustoma0Nf4000004AItQEAWItem15",
        "%vlocity_namespace%__UpsertKey__c": false,
        "Name": "Oppty Discount Extract - Update",
        "VlocityDataPackType": "SObject",
        "VlocityRecordSObjectType": "%vlocity_namespace%__DRMapItem__c"
    },
    {
        "%vlocity_namespace%__DomainObjectAPIName__c": "json",
        "%vlocity_namespace%__DomainObjectCreationOrder__c": 1,
        "%vlocity_namespace%__DomainObjectFieldAPIName__c": "Oppty:FrameContract:Version:Discount:DiscountItem:Description",
        "%vlocity_namespace%__GlobalKey__c": "bfad5a68-0855-d85e-f7ef-efe46b2b1ae5",
        "%vlocity_namespace%__InterfaceFieldAPIName__c": "Oppty:FrameContract:Version:Discount:DiscountItem:%vlocity_namespace%__Description__c",
        "%vlocity_namespace%__IsDisabled__c": false,
        "%vlocity_namespace%__IsRequiredForUpsert__c": false,
        "%vlocity_namespace%__MapId__c": "Opty Discount Extract - UpdateCustoma0Nf4000004AItQEAWItem16",
        "%vlocity_namespace%__UpsertKey__c": false,
        "Name": "Oppty Discount Extract - Update",
        "VlocityDataPackType": "SObject",
        "VlocityRecordSObjectType": "%vlocity_namespace%__DRMapItem__c"
    },
    {
        "%vlocity_namespace%__DomainObjectAPIName__c": "json",
        "%vlocity_namespace%__DomainObjectCreationOrder__c": 1,
        "%vlocity_namespace%__DomainObjectFieldAPIName__c": "Oppty:FrameContract:Version:Discount:DiscountItem:Name",
        "%vlocity_namespace%__GlobalKey__c": "29ffd6a5-7310-85ab-835f-b4fe0a4fd8f5",
        "%vlocity_namespace%__InterfaceFieldAPIName__c": "Oppty:FrameContract:Version:Discount:DiscountItem:Name",
        "%vlocity_namespace%__IsDisabled__c": false,
        "%vlocity_namespace%__IsRequiredForUpsert__c": false,
        "%vlocity_namespace%__MapId__c": "Opty Discount Extract - UpdateCustoma0Nf4000004AItQEAWItem19",
        "%vlocity_namespace%__UpsertKey__c": false,
        "Name": "Oppty Discount Extract - Update",
        "VlocityDataPackType": "SObject",
        "VlocityRecordSObjectType": "%vlocity_namespace%__DRMapItem__c"
    },
    {
        "%vlocity_namespace%__DomainObjectAPIName__c": "json",
        "%vlocity_namespace%__DomainObjectCreationOrder__c": 1,
        "%vlocity_namespace%__DomainObjectFieldAPIName__c": "Oppty:FrameContract:Version:Discount:DiscountItem:OpptyDiscountId",
        "%vlocity_namespace%__GlobalKey__c": "6240561f-858b-60b6-5e9a-9f4f066b250e",
        "%vlocity_namespace%__InterfaceFieldAPIName__c": "Oppty:FrameContract:Version:Discount:DiscountItem:%vlocity_namespace%__OpportunityDiscountId__c",
        "%vlocity_namespace%__IsDisabled__c": false,
        "%vlocity_namespace%__IsRequiredForUpsert__c": false,
        "%vlocity_namespace%__MapId__c": "Opty Discount Extract - UpdateCustoma0Nf4000004AItQEAWItem18",
        "%vlocity_namespace%__UpsertKey__c": false,
        "Name": "Oppty Discount Extract - Update",
        "VlocityDataPackType": "SObject",
        "VlocityRecordSObjectType": "%vlocity_namespace%__DRMapItem__c"
    },
    {
        "%vlocity_namespace%__DomainObjectAPIName__c": "json",
        "%vlocity_namespace%__DomainObjectCreationOrder__c": 1,
        "%vlocity_namespace%__DomainObjectFieldAPIName__c": "Oppty:FrameContract:Version:Discount:DiscountItem:ProductId",
        "%vlocity_namespace%__GlobalKey__c": "17d5447f-8225-673c-989e-f1758c935181",
        "%vlocity_namespace%__InterfaceFieldAPIName__c": "Oppty:FrameContract:Version:Discount:DiscountItem:%vlocity_namespace%__ProductId__c",
        "%vlocity_namespace%__IsDisabled__c": false,
        "%vlocity_namespace%__IsRequiredForUpsert__c": false,
        "%vlocity_namespace%__MapId__c": "Opty Discount Extract - UpdateCustoma0Nf4000004AItQEAWItem17",
        "%vlocity_namespace%__UpsertKey__c": false,
        "Name": "Oppty Discount Extract - Update",
        "VlocityDataPackType": "SObject",
        "VlocityRecordSObjectType": "%vlocity_namespace%__DRMapItem__c"
    },
    {
        "%vlocity_namespace%__DomainObjectAPIName__c": "json",
        "%vlocity_namespace%__DomainObjectCreationOrder__c": 1,
        "%vlocity_namespace%__DomainObjectFieldAPIName__c": "Oppty:FrameContract:Version:Discount:DiscountPricing:AdjustmentValue",
        "%vlocity_namespace%__GlobalKey__c": "6bc3e92b-a885-973d-0c12-3f946f88dcae",
        "%vlocity_namespace%__InterfaceFieldAPIName__c": "Oppty:FrameContract:Version:Discount:DiscountPricing:%vlocity_namespace%__AdjustmentValue__c",
        "%vlocity_namespace%__IsDisabled__c": false,
        "%vlocity_namespace%__IsRequiredForUpsert__c": false,
        "%vlocity_namespace%__MapId__c": "Opty Discount Extract - UpdateCustoma0Nf4000004AItQEAWItem20",
        "%vlocity_namespace%__UpsertKey__c": false,
        "Name": "Oppty Discount Extract - Update",
        "VlocityDataPackType": "SObject",
        "VlocityRecordSObjectType": "%vlocity_namespace%__DRMapItem__c"
    },
    {
        "%vlocity_namespace%__DomainObjectAPIName__c": "json",
        "%vlocity_namespace%__DomainObjectCreationOrder__c": 1,
        "%vlocity_namespace%__DomainObjectFieldAPIName__c": "Oppty:FrameContract:Version:Discount:DiscountPricing:Amount",
        "%vlocity_namespace%__GlobalKey__c": "e4af67b8-a82b-86f8-124d-8ece849e9f4a",
        "%vlocity_namespace%__InterfaceFieldAPIName__c": "Oppty:FrameContract:Version:Discount:DiscountPricing:%vlocity_namespace%__Amount__c",
        "%vlocity_namespace%__IsDisabled__c": false,
        "%vlocity_namespace%__IsRequiredForUpsert__c": false,
        "%vlocity_namespace%__MapId__c": "Opty Discount Extract - UpdateCustoma0Nf4000004AItQEAWItem21",
        "%vlocity_namespace%__UpsertKey__c": false,
        "Name": "Oppty Discount Extract - Update",
        "VlocityDataPackType": "SObject",
        "VlocityRecordSObjectType": "%vlocity_namespace%__DRMapItem__c"
    },
    {
        "%vlocity_namespace%__DomainObjectAPIName__c": "json",
        "%vlocity_namespace%__DomainObjectCreationOrder__c": 1,
        "%vlocity_namespace%__DomainObjectFieldAPIName__c": "Oppty:FrameContract:Version:Discount:DiscountPricing:Name",
        "%vlocity_namespace%__GlobalKey__c": "f6a389b0-5fb5-1015-c117-ed509304cc38",
        "%vlocity_namespace%__InterfaceFieldAPIName__c": "Oppty:FrameContract:Version:Discount:DiscountPricing:Name",
        "%vlocity_namespace%__IsDisabled__c": false,
        "%vlocity_namespace%__IsRequiredForUpsert__c": false,
        "%vlocity_namespace%__MapId__c": "Opty Discount Extract - UpdateCustoma0Nf4000004AItQEAWItem26",
        "%vlocity_namespace%__UpsertKey__c": false,
        "Name": "Oppty Discount Extract - Update",
        "VlocityDataPackType": "SObject",
        "VlocityRecordSObjectType": "%vlocity_namespace%__DRMapItem__c"
    },
    {
        "%vlocity_namespace%__DomainObjectAPIName__c": "json",
        "%vlocity_namespace%__DomainObjectCreationOrder__c": 1,
        "%vlocity_namespace%__DomainObjectFieldAPIName__c": "Oppty:FrameContract:Version:Discount:DiscountPricing:OpptyDiscountId",
        "%vlocity_namespace%__GlobalKey__c": "95b0e6e8-e9b4-6a1d-8c1c-480237675e22",
        "%vlocity_namespace%__InterfaceFieldAPIName__c": "Oppty:FrameContract:Version:Discount:DiscountPricing:%vlocity_namespace%__OpportunityDiscountId__c",
        "%vlocity_namespace%__IsDisabled__c": false,
        "%vlocity_namespace%__IsRequiredForUpsert__c": false,
        "%vlocity_namespace%__MapId__c": "Opty Discount Extract - UpdateCustoma0Nf4000004AItQEAWItem23",
        "%vlocity_namespace%__UpsertKey__c": false,
        "Name": "Oppty Discount Extract - Update",
        "VlocityDataPackType": "SObject",
        "VlocityRecordSObjectType": "%vlocity_namespace%__DRMapItem__c"
    },
    {
        "%vlocity_namespace%__DomainObjectAPIName__c": "json",
        "%vlocity_namespace%__DomainObjectCreationOrder__c": 1,
        "%vlocity_namespace%__DomainObjectFieldAPIName__c": "Oppty:FrameContract:Version:Discount:DiscountPricing:PricingVariableId",
        "%vlocity_namespace%__GlobalKey__c": "27d30954-b7a5-8940-bef5-88e7209a3975",
        "%vlocity_namespace%__InterfaceFieldAPIName__c": "Oppty:FrameContract:Version:Discount:DiscountPricing:%vlocity_namespace%__PricingVariableId__c",
        "%vlocity_namespace%__IsDisabled__c": false,
        "%vlocity_namespace%__IsRequiredForUpsert__c": false,
        "%vlocity_namespace%__MapId__c": "Opty Discount Extract - UpdateCustoma0Nf4000004AItQEAWItem22",
        "%vlocity_namespace%__UpsertKey__c": false,
        "Name": "Oppty Discount Extract - Update",
        "VlocityDataPackType": "SObject",
        "VlocityRecordSObjectType": "%vlocity_namespace%__DRMapItem__c"
    },
    {
        "%vlocity_namespace%__DomainObjectAPIName__c": "json",
        "%vlocity_namespace%__DomainObjectCreationOrder__c": 1,
        "%vlocity_namespace%__DomainObjectFieldAPIName__c": "Oppty:FrameContract:Version:Discount:DiscountPricing:TimePlanId",
        "%vlocity_namespace%__GlobalKey__c": "54ee8d9b-a800-9fe6-8dcf-d201d0eb481a",
        "%vlocity_namespace%__InterfaceFieldAPIName__c": "Oppty:FrameContract:Version:Discount:DiscountPricing:%vlocity_namespace%__TimePlanId__c",
        "%vlocity_namespace%__IsDisabled__c": false,
        "%vlocity_namespace%__IsRequiredForUpsert__c": false,
        "%vlocity_namespace%__MapId__c": "Opty Discount Extract - UpdateCustoma0Nf4000004AItQEAWItem24",
        "%vlocity_namespace%__UpsertKey__c": false,
        "Name": "Oppty Discount Extract - Update",
        "VlocityDataPackType": "SObject",
        "VlocityRecordSObjectType": "%vlocity_namespace%__DRMapItem__c"
    },
    {
        "%vlocity_namespace%__DomainObjectAPIName__c": "json",
        "%vlocity_namespace%__DomainObjectCreationOrder__c": 1,
        "%vlocity_namespace%__DomainObjectFieldAPIName__c": "Oppty:FrameContract:Version:Discount:DiscountPricing:TimePolicyId",
        "%vlocity_namespace%__GlobalKey__c": "38dfb6b8-ed25-b8a2-63f6-209e77300ac4",
        "%vlocity_namespace%__InterfaceFieldAPIName__c": "Oppty:FrameContract:Version:Discount:DiscountPricing:%vlocity_namespace%__TimePolicyId__c",
        "%vlocity_namespace%__IsDisabled__c": false,
        "%vlocity_namespace%__IsRequiredForUpsert__c": false,
        "%vlocity_namespace%__MapId__c": "Opty Discount Extract - UpdateCustoma0Nf4000004AItQEAWItem25",
        "%vlocity_namespace%__UpsertKey__c": false,
        "Name": "Oppty Discount Extract - Update",
        "VlocityDataPackType": "SObject",
        "VlocityRecordSObjectType": "%vlocity_namespace%__DRMapItem__c"
    },
    {
        "%vlocity_namespace%__DomainObjectAPIName__c": "json",
        "%vlocity_namespace%__DomainObjectCreationOrder__c": 1,
        "%vlocity_namespace%__DomainObjectFieldAPIName__c": "Oppty:FrameContract:Version:Discount:EffectiveEndDate",
        "%vlocity_namespace%__GlobalKey__c": "0772e395-2c77-fe79-a249-2fcc1dcef908",
        "%vlocity_namespace%__InterfaceFieldAPIName__c": "Oppty:FrameContract:Version:Discount:%vlocity_namespace%__EffectiveEndDate__c",
        "%vlocity_namespace%__IsDisabled__c": false,
        "%vlocity_namespace%__IsRequiredForUpsert__c": false,
        "%vlocity_namespace%__MapId__c": "Opty Discount Extract - UpdateCustoma0Nf4000004AItQEAWItem12",
        "%vlocity_namespace%__UpsertKey__c": false,
        "Name": "Oppty Discount Extract - Update",
        "VlocityDataPackType": "SObject",
        "VlocityRecordSObjectType": "%vlocity_namespace%__DRMapItem__c"
    },
    {
        "%vlocity_namespace%__DomainObjectAPIName__c": "json",
        "%vlocity_namespace%__DomainObjectCreationOrder__c": 1,
        "%vlocity_namespace%__DomainObjectFieldAPIName__c": "Oppty:FrameContract:Version:Discount:EffectiveStartDate",
        "%vlocity_namespace%__GlobalKey__c": "226899bd-c1b8-76dc-4816-d2b283d89045",
        "%vlocity_namespace%__InterfaceFieldAPIName__c": "Oppty:FrameContract:Version:Discount:%vlocity_namespace%__EffectiveStartDate__c",
        "%vlocity_namespace%__IsDisabled__c": false,
        "%vlocity_namespace%__IsRequiredForUpsert__c": false,
        "%vlocity_namespace%__MapId__c": "Opty Discount Extract - UpdateCustoma0Nf4000004AItQEAWItem13",
        "%vlocity_namespace%__UpsertKey__c": false,
        "Name": "Oppty Discount Extract - Update",
        "VlocityDataPackType": "SObject",
        "VlocityRecordSObjectType": "%vlocity_namespace%__DRMapItem__c"
    },
    {
        "%vlocity_namespace%__DomainObjectAPIName__c": "json",
        "%vlocity_namespace%__DomainObjectCreationOrder__c": 1,
        "%vlocity_namespace%__DomainObjectFieldAPIName__c": "Oppty:FrameContract:Version:Discount:Name",
        "%vlocity_namespace%__GlobalKey__c": "fdb99a81-f0e8-d637-8f6d-93a0ea3c5bb9",
        "%vlocity_namespace%__InterfaceFieldAPIName__c": "Oppty:FrameContract:Version:Discount:Name",
        "%vlocity_namespace%__IsDisabled__c": false,
        "%vlocity_namespace%__IsRequiredForUpsert__c": false,
        "%vlocity_namespace%__MapId__c": "Opty Discount Extract - UpdateCustoma0Nf4000004AItQEAWItem27",
        "%vlocity_namespace%__UpsertKey__c": false,
        "Name": "Oppty Discount Extract - Update",
        "VlocityDataPackType": "SObject",
        "VlocityRecordSObjectType": "%vlocity_namespace%__DRMapItem__c"
    },
    {
        "%vlocity_namespace%__DomainObjectAPIName__c": "json",
        "%vlocity_namespace%__DomainObjectCreationOrder__c": 1,
        "%vlocity_namespace%__DomainObjectFieldAPIName__c": "Oppty:FrameContract:Version:Discount:ReferenceNumber",
        "%vlocity_namespace%__GlobalKey__c": "8ac98c7d-8f8a-1d6e-5029-747f4aeba9e9",
        "%vlocity_namespace%__InterfaceFieldAPIName__c": "Oppty:FrameContract:Version:Discount:%vlocity_namespace%__ReferenceNumber__c",
        "%vlocity_namespace%__IsDisabled__c": false,
        "%vlocity_namespace%__IsRequiredForUpsert__c": false,
        "%vlocity_namespace%__MapId__c": "Opty Discount Extract - UpdateCustoma0Nf4000004AItQEAWItem14",
        "%vlocity_namespace%__UpsertKey__c": false,
        "Name": "Oppty Discount Extract - Update",
        "VlocityDataPackType": "SObject",
        "VlocityRecordSObjectType": "%vlocity_namespace%__DRMapItem__c"
    },
    {
        "%vlocity_namespace%__DomainObjectAPIName__c": "json",
        "%vlocity_namespace%__DomainObjectCreationOrder__c": 1,
        "%vlocity_namespace%__DomainObjectFieldAPIName__c": "Oppty:FrameContract:Version:Discount:TemplateId",
        "%vlocity_namespace%__GlobalKey__c": "7d957858-0d9d-e262-18ab-f76a48c0b735",
        "%vlocity_namespace%__InterfaceFieldAPIName__c": "Oppty:FrameContract:Version:Discount:%vlocity_namespace%__DiscountTemplateId__c",
        "%vlocity_namespace%__IsDisabled__c": false,
        "%vlocity_namespace%__IsRequiredForUpsert__c": false,
        "%vlocity_namespace%__MapId__c": "Opty Discount Extract - UpdateCustoma0Nf4000004AItQEAWItem11",
        "%vlocity_namespace%__UpsertKey__c": false,
        "Name": "Oppty Discount Extract - Update",
        "VlocityDataPackType": "SObject",
        "VlocityRecordSObjectType": "%vlocity_namespace%__DRMapItem__c"
    },
    {
        "%vlocity_namespace%__DomainObjectAPIName__c": "json",
        "%vlocity_namespace%__DomainObjectCreationOrder__c": 1,
        "%vlocity_namespace%__DomainObjectFieldAPIName__c": "Oppty:FrameContract:Version:DocumentCreationSource",
        "%vlocity_namespace%__GlobalKey__c": "91abaa7f-ca53-3d51-8108-793dec1d1301",
        "%vlocity_namespace%__InterfaceFieldAPIName__c": "Oppty:FrameContract:Version:%vlocity_namespace%__DocumentCreationSource__c",
        "%vlocity_namespace%__IsDisabled__c": false,
        "%vlocity_namespace%__IsRequiredForUpsert__c": false,
        "%vlocity_namespace%__MapId__c": "Oppty Discount Extract - UpdateCustom7080",
        "%vlocity_namespace%__UpsertKey__c": false,
        "Name": "Oppty Discount Extract - Update",
        "VlocityDataPackType": "SObject",
        "VlocityRecordSObjectType": "%vlocity_namespace%__DRMapItem__c"
    },
    {
        "%vlocity_namespace%__DomainObjectAPIName__c": "json",
        "%vlocity_namespace%__DomainObjectCreationOrder__c": 1,
        "%vlocity_namespace%__DomainObjectFieldAPIName__c": "Oppty:FrameContract:Version:DocumentTemplateId",
        "%vlocity_namespace%__GlobalKey__c": "6c9f264c-42b6-0979-5741-97612d6528e9",
        "%vlocity_namespace%__InterfaceFieldAPIName__c": "Oppty:FrameContract:Version:%vlocity_namespace%__DocumentTemplateId__c",
        "%vlocity_namespace%__IsDisabled__c": false,
        "%vlocity_namespace%__IsRequiredForUpsert__c": false,
        "%vlocity_namespace%__MapId__c": "Oppty Discount Extract - UpdateCustom5258",
        "%vlocity_namespace%__UpsertKey__c": false,
        "Name": "Oppty Discount Extract - Update",
        "VlocityDataPackType": "SObject",
        "VlocityRecordSObjectType": "%vlocity_namespace%__DRMapItem__c"
    },
    {
        "%vlocity_namespace%__DomainObjectAPIName__c": "json",
        "%vlocity_namespace%__DomainObjectCreationOrder__c": 1,
        "%vlocity_namespace%__DomainObjectFieldAPIName__c": "Oppty:Name",
        "%vlocity_namespace%__GlobalKey__c": "f064c105-a6d8-05cf-ec09-03e1a4aacf68",
        "%vlocity_namespace%__InterfaceFieldAPIName__c": "Oppty:Name",
        "%vlocity_namespace%__IsDisabled__c": false,
        "%vlocity_namespace%__IsRequiredForUpsert__c": false,
        "%vlocity_namespace%__MapId__c": "Opty Discount Extract - UpdateCustoma0Nf4000004AItQEAWItem30",
        "%vlocity_namespace%__UpsertKey__c": false,
        "Name": "Oppty Discount Extract - Update",
        "VlocityDataPackType": "SObject",
        "VlocityRecordSObjectType": "%vlocity_namespace%__DRMapItem__c"
    },
    {
        "%vlocity_namespace%__DomainObjectAPIName__c": "json",
        "%vlocity_namespace%__DomainObjectCreationOrder__c": 1,
        "%vlocity_namespace%__DomainObjectFieldAPIName__c": "Oppty:originalFrameContractId",
        "%vlocity_namespace%__GlobalKey__c": "bab6e188-015f-ead0-2df9-fddacacf52c2",
        "%vlocity_namespace%__InterfaceFieldAPIName__c": "Oppty:%vlocity_namespace%__OriginatingContractId__c",
        "%vlocity_namespace%__IsDisabled__c": false,
        "%vlocity_namespace%__IsRequiredForUpsert__c": false,
        "%vlocity_namespace%__MapId__c": "Opty Discount Extract - UpdateCustoma0Nf4000004AItQEAWItem9",
        "%vlocity_namespace%__UpsertKey__c": false,
        "Name": "Oppty Discount Extract - Update",
        "VlocityDataPackType": "SObject",
        "VlocityRecordSObjectType": "%vlocity_namespace%__DRMapItem__c"
    },
    {
        "%vlocity_namespace%__DomainObjectAPIName__c": "json",
        "%vlocity_namespace%__DomainObjectCreationOrder__c": 1,
        "%vlocity_namespace%__DomainObjectFieldAPIName__c": "Order:FrameContractCount",
        "%vlocity_namespace%__GlobalKey__c": "d8a3298c-eb75-7b29-6c6d-625cae1b7c01",
        "%vlocity_namespace%__InterfaceFieldAPIName__c": "FrameContractCount",
        "%vlocity_namespace%__IsDisabled__c": false,
        "%vlocity_namespace%__IsRequiredForUpsert__c": false,
        "%vlocity_namespace%__MapId__c": "Opty Discount Extract - UpdateCustoma0Nf4000004AItQEAWItem7",
        "%vlocity_namespace%__UpsertKey__c": false,
        "Name": "Oppty Discount Extract - Update",
        "VlocityDataPackType": "SObject",
        "VlocityRecordSObjectType": "%vlocity_namespace%__DRMapItem__c"
    }
]