[
    {
        "%vlocity_namespace%__DomainObjectAPIName__c": "Contract",
        "%vlocity_namespace%__DomainObjectCreationOrder__c": 1,
        "%vlocity_namespace%__DomainObjectFieldAPIName__c": "%vlocity_namespace%__ContractType__c",
        "%vlocity_namespace%__GlobalKey__c": "0f95c120-8a5c-201e-0d65-2ea9e09b5d5f",
        "%vlocity_namespace%__InterfaceFieldAPIName__c": "ContractType",
        "%vlocity_namespace%__IsDisabled__c": false,
        "%vlocity_namespace%__IsRequiredForUpsert__c": false,
        "%vlocity_namespace%__MapId__c": "CreateContractDiscounts - QuoteCustom791",
        "%vlocity_namespace%__UpsertKey__c": false,
        "Name": "CreateContractDiscounts - Quote",
        "VlocityDataPackType": "SObject",
        "VlocityRecordSObjectType": "%vlocity_namespace%__DRMapItem__c"
    },
    {
        "%vlocity_namespace%__DomainObjectAPIName__c": "Contract",
        "%vlocity_namespace%__DomainObjectCreationOrder__c": 1,
        "%vlocity_namespace%__DomainObjectFieldAPIName__c": "%vlocity_namespace%__IsFrameContract__c",
        "%vlocity_namespace%__GlobalKey__c": "7a292053-44a3-4527-da0c-3545a1d971d4",
        "%vlocity_namespace%__InterfaceFieldAPIName__c": "isFrameContract",
        "%vlocity_namespace%__IsDisabled__c": false,
        "%vlocity_namespace%__IsRequiredForUpsert__c": false,
        "%vlocity_namespace%__MapId__c": "CreateContractVersionLinesCustom1307",
        "%vlocity_namespace%__UpsertKey__c": false,
        "Name": "CreateContractDiscounts - Quote",
        "VlocityDataPackType": "SObject",
        "VlocityRecordSObjectType": "%vlocity_namespace%__DRMapItem__c"
    },
    {
        "%vlocity_namespace%__DomainObjectAPIName__c": "Contract",
        "%vlocity_namespace%__DomainObjectCreationOrder__c": 1,
        "%vlocity_namespace%__DomainObjectFieldAPIName__c": "%vlocity_namespace%__OriginalContractId__c",
        "%vlocity_namespace%__GlobalKey__c": "45c55bfd-3f91-fd5a-b615-108004beff13",
        "%vlocity_namespace%__InterfaceFieldAPIName__c": "Quote:originalContractId",
        "%vlocity_namespace%__IsDisabled__c": false,
        "%vlocity_namespace%__IsRequiredForUpsert__c": false,
        "%vlocity_namespace%__MapId__c": "CreateContractDiscounts - QuoteCustom8815",
        "%vlocity_namespace%__UpsertKey__c": false,
        "Name": "CreateContractDiscounts - Quote",
        "VlocityDataPackType": "SObject",
        "VlocityRecordSObjectType": "%vlocity_namespace%__DRMapItem__c"
    },
    {
        "%vlocity_namespace%__DomainObjectAPIName__c": "Contract",
        "%vlocity_namespace%__DomainObjectCreationOrder__c": 1,
        "%vlocity_namespace%__DomainObjectFieldAPIName__c": "%vlocity_namespace%__QuoteId__c",
        "%vlocity_namespace%__GlobalKey__c": "1e20234b-8bfb-0d55-b2d7-060f5a2299f0",
        "%vlocity_namespace%__InterfaceFieldAPIName__c": "QuoteId",
        "%vlocity_namespace%__IsDisabled__c": false,
        "%vlocity_namespace%__IsRequiredForUpsert__c": false,
        "%vlocity_namespace%__MapId__c": "CreateContractVersionLinesCustom9145",
        "%vlocity_namespace%__UpsertKey__c": false,
        "Name": "CreateContractDiscounts - Quote",
        "VlocityDataPackType": "SObject",
        "VlocityRecordSObjectType": "%vlocity_namespace%__DRMapItem__c"
    },
    {
        "%vlocity_namespace%__DomainObjectAPIName__c": "Contract",
        "%vlocity_namespace%__DomainObjectCreationOrder__c": 1,
        "%vlocity_namespace%__DomainObjectFieldAPIName__c": "AccountId",
        "%vlocity_namespace%__GlobalKey__c": "4f4634b6-14f2-8b35-eb22-aca57269bd94",
        "%vlocity_namespace%__InterfaceFieldAPIName__c": "Quote:AccountId",
        "%vlocity_namespace%__InterfaceObjectName__c": "json",
        "%vlocity_namespace%__IsDisabled__c": false,
        "%vlocity_namespace%__IsRequiredForUpsert__c": false,
        "%vlocity_namespace%__LinkCreatedIndex__c": 0,
        "%vlocity_namespace%__MapId__c": "CreateContractVersionLinesCustom7236",
        "%vlocity_namespace%__UpsertKey__c": false,
        "Name": "CreateContractDiscounts - Quote",
        "VlocityDataPackType": "SObject",
        "VlocityRecordSObjectType": "%vlocity_namespace%__DRMapItem__c"
    },
    {
        "%vlocity_namespace%__DomainObjectAPIName__c": "Contract",
        "%vlocity_namespace%__DomainObjectCreationOrder__c": 1,
        "%vlocity_namespace%__DomainObjectFieldAPIName__c": "Name",
        "%vlocity_namespace%__GlobalKey__c": "ea35c1cd-6d87-65c8-5e89-bcb49280c1a8",
        "%vlocity_namespace%__InterfaceFieldAPIName__c": "Quote:Name",
        "%vlocity_namespace%__InterfaceObjectName__c": "json",
        "%vlocity_namespace%__IsDisabled__c": false,
        "%vlocity_namespace%__IsRequiredForUpsert__c": false,
        "%vlocity_namespace%__LinkCreatedIndex__c": 0,
        "%vlocity_namespace%__MapId__c": "CreateContractVersionLinesCustom2651",
        "%vlocity_namespace%__UpsertKey__c": false,
        "Name": "CreateContractDiscounts - Quote",
        "VlocityDataPackType": "SObject",
        "VlocityRecordSObjectType": "%vlocity_namespace%__DRMapItem__c"
    },
    {
        "%vlocity_namespace%__DomainObjectAPIName__c": "Contract",
        "%vlocity_namespace%__DomainObjectCreationOrder__c": 1,
        "%vlocity_namespace%__DomainObjectFieldAPIName__c": "Status",
        "%vlocity_namespace%__GlobalKey__c": "cbf6e448-d163-934a-3b63-031acc670b51",
        "%vlocity_namespace%__InterfaceFieldAPIName__c": "ContractStatus",
        "%vlocity_namespace%__IsDisabled__c": false,
        "%vlocity_namespace%__IsRequiredForUpsert__c": false,
        "%vlocity_namespace%__MapId__c": "CreateContractVersionCustom7568",
        "%vlocity_namespace%__UpsertKey__c": false,
        "Name": "CreateContractDiscounts - Quote",
        "VlocityDataPackType": "SObject",
        "VlocityRecordSObjectType": "%vlocity_namespace%__DRMapItem__c"
    },
    {
        "%vlocity_namespace%__ConfigurationValue__c": "FAKEMAPPING",
        "%vlocity_namespace%__DomainObjectAPIName__c": "%vlocity_namespace%__ContractVersion__c",
        "%vlocity_namespace%__DomainObjectCreationOrder__c": 2,
        "%vlocity_namespace%__DomainObjectFieldAPIName__c": "%vlocity_namespace%__ContractId__c",
        "%vlocity_namespace%__FilterOperator__c": "=",
        "%vlocity_namespace%__GlobalKey__c": "e7326b9a-ebb7-f330-824b-028ee8d4bc85",
        "%vlocity_namespace%__IsDisabled__c": false,
        "%vlocity_namespace%__IsRequiredForUpsert__c": false,
        "%vlocity_namespace%__LinkCreatedField__c": "Id",
        "%vlocity_namespace%__LinkCreatedIndex__c": 1,
        "%vlocity_namespace%__MapId__c": "CreateContractVersionCustom8847",
        "%vlocity_namespace%__UpsertKey__c": false,
        "Name": "CreateContractDiscounts - Quote",
        "VlocityDataPackType": "SObject",
        "VlocityRecordSObjectType": "%vlocity_namespace%__DRMapItem__c"
    },
    {
        "%vlocity_namespace%__DomainObjectAPIName__c": "%vlocity_namespace%__ContractVersion__c",
        "%vlocity_namespace%__DomainObjectCreationOrder__c": 2,
        "%vlocity_namespace%__DomainObjectFieldAPIName__c": "%vlocity_namespace%__Status__c",
        "%vlocity_namespace%__GlobalKey__c": "2b538b66-414e-454b-b6ba-a59534240161",
        "%vlocity_namespace%__InterfaceFieldAPIName__c": "VersionStatus",
        "%vlocity_namespace%__IsDisabled__c": false,
        "%vlocity_namespace%__IsRequiredForUpsert__c": false,
        "%vlocity_namespace%__MapId__c": "CreateContractVersionLinesCustom3826",
        "%vlocity_namespace%__UpsertKey__c": false,
        "Name": "CreateContractDiscounts - Quote",
        "VlocityDataPackType": "SObject",
        "VlocityRecordSObjectType": "%vlocity_namespace%__DRMapItem__c"
    },
    {
        "%vlocity_namespace%__ConfigurationValue__c": "FAKEMAPPING",
        "%vlocity_namespace%__DomainObjectAPIName__c": "%vlocity_namespace%__ContractVersion__c",
        "%vlocity_namespace%__DomainObjectCreationOrder__c": 2,
        "%vlocity_namespace%__DomainObjectFieldAPIName__c": "Id",
        "%vlocity_namespace%__FilterOperator__c": "=",
        "%vlocity_namespace%__GlobalKey__c": "f7b0a7b1-f03a-4808-cd10-abe8f03207a2",
        "%vlocity_namespace%__IsDisabled__c": true,
        "%vlocity_namespace%__IsRequiredForUpsert__c": false,
        "%vlocity_namespace%__MapId__c": "CreateContractVersionLinesCustom6096",
        "%vlocity_namespace%__UpsertKey__c": false,
        "Name": "CreateContractDiscounts - Quote",
        "VlocityDataPackType": "SObject",
        "VlocityRecordSObjectType": "%vlocity_namespace%__DRMapItem__c"
    },
    {
        "%vlocity_namespace%__DomainObjectAPIName__c": "%vlocity_namespace%__ContractVersionDiscount__c",
        "%vlocity_namespace%__DomainObjectCreationOrder__c": 3,
        "%vlocity_namespace%__DomainObjectFieldAPIName__c": "%vlocity_namespace%__AppliesToAllItems__c",
        "%vlocity_namespace%__GlobalKey__c": "fa33a5b3-687c-38c8-f72e-0c876dd61ffa",
        "%vlocity_namespace%__InterfaceFieldAPIName__c": "Quote:Discount:AppliesToAllItems",
        "%vlocity_namespace%__IsDisabled__c": false,
        "%vlocity_namespace%__IsRequiredForUpsert__c": false,
        "%vlocity_namespace%__MapId__c": "CreateContractDiscounts - QuoteCustom579",
        "%vlocity_namespace%__UpsertKey__c": false,
        "Name": "CreateContractDiscounts - Quote",
        "VlocityDataPackType": "SObject",
        "VlocityRecordSObjectType": "%vlocity_namespace%__DRMapItem__c"
    },
    {
        "%vlocity_namespace%__ConfigurationValue__c": "FAKEMAPPING",
        "%vlocity_namespace%__DomainObjectAPIName__c": "%vlocity_namespace%__ContractVersionDiscount__c",
        "%vlocity_namespace%__DomainObjectCreationOrder__c": 3,
        "%vlocity_namespace%__DomainObjectFieldAPIName__c": "%vlocity_namespace%__ContractVersionId__c",
        "%vlocity_namespace%__FilterOperator__c": "=",
        "%vlocity_namespace%__GlobalKey__c": "d6b00e57-7121-b9ba-280d-20694b2b39e1",
        "%vlocity_namespace%__IsDisabled__c": false,
        "%vlocity_namespace%__IsRequiredForUpsert__c": false,
        "%vlocity_namespace%__LinkCreatedField__c": "Id",
        "%vlocity_namespace%__LinkCreatedIndex__c": 2,
        "%vlocity_namespace%__MapId__c": "CreateContractVersionLinesCustom9930",
        "%vlocity_namespace%__UpsertKey__c": false,
        "Name": "CreateContractDiscounts - Quote",
        "VlocityDataPackType": "SObject",
        "VlocityRecordSObjectType": "%vlocity_namespace%__DRMapItem__c"
    },
    {
        "%vlocity_namespace%__DomainObjectAPIName__c": "%vlocity_namespace%__ContractVersionDiscount__c",
        "%vlocity_namespace%__DomainObjectCreationOrder__c": 3,
        "%vlocity_namespace%__DomainObjectFieldAPIName__c": "%vlocity_namespace%__Description__c",
        "%vlocity_namespace%__GlobalKey__c": "a21b57ac-cf74-ac96-44a1-2b6af5db259e",
        "%vlocity_namespace%__InterfaceFieldAPIName__c": "Quote:Discount:Description",
        "%vlocity_namespace%__IsDisabled__c": false,
        "%vlocity_namespace%__IsRequiredForUpsert__c": false,
        "%vlocity_namespace%__MapId__c": "CreateContractVersionLinesCustom3315",
        "%vlocity_namespace%__UpsertKey__c": false,
        "Name": "CreateContractDiscounts - Quote",
        "VlocityDataPackType": "SObject",
        "VlocityRecordSObjectType": "%vlocity_namespace%__DRMapItem__c"
    },
    {
        "%vlocity_namespace%__DomainObjectAPIName__c": "%vlocity_namespace%__ContractVersionDiscount__c",
        "%vlocity_namespace%__DomainObjectCreationOrder__c": 3,
        "%vlocity_namespace%__DomainObjectFieldAPIName__c": "%vlocity_namespace%__DiscountTemplateId__c",
        "%vlocity_namespace%__GlobalKey__c": "d1225e85-672e-36f0-6fbe-c8e012910183",
        "%vlocity_namespace%__InterfaceFieldAPIName__c": "Quote:Discount:TemplateId",
        "%vlocity_namespace%__IsDisabled__c": false,
        "%vlocity_namespace%__IsRequiredForUpsert__c": false,
        "%vlocity_namespace%__MapId__c": "CreateContractVersionLinesCustom8853",
        "%vlocity_namespace%__UpsertKey__c": false,
        "Name": "CreateContractDiscounts - Quote",
        "VlocityDataPackType": "SObject",
        "VlocityRecordSObjectType": "%vlocity_namespace%__DRMapItem__c"
    },
    {
        "%vlocity_namespace%__DomainObjectAPIName__c": "%vlocity_namespace%__ContractVersionDiscount__c",
        "%vlocity_namespace%__DomainObjectCreationOrder__c": 3,
        "%vlocity_namespace%__DomainObjectFieldAPIName__c": "%vlocity_namespace%__ReferenceNumber__c",
        "%vlocity_namespace%__GlobalKey__c": "28665c95-7ea2-e4a4-9e5f-ea46fa7446f5",
        "%vlocity_namespace%__InterfaceFieldAPIName__c": "Quote:Discount:ReferenceNumber",
        "%vlocity_namespace%__IsDisabled__c": false,
        "%vlocity_namespace%__IsRequiredForUpsert__c": true,
        "%vlocity_namespace%__MapId__c": "CreateContractVersionLinesCustom4727",
        "%vlocity_namespace%__UpsertKey__c": false,
        "Name": "CreateContractDiscounts - Quote",
        "VlocityDataPackType": "SObject",
        "VlocityRecordSObjectType": "%vlocity_namespace%__DRMapItem__c"
    },
    {
        "%vlocity_namespace%__ConfigurationValue__c": "FAKEMAPPING",
        "%vlocity_namespace%__DomainObjectAPIName__c": "%vlocity_namespace%__ContractVersionDiscount__c",
        "%vlocity_namespace%__DomainObjectCreationOrder__c": 3,
        "%vlocity_namespace%__DomainObjectFieldAPIName__c": "Id",
        "%vlocity_namespace%__FilterOperator__c": "=",
        "%vlocity_namespace%__GlobalKey__c": "f22cac51-c9c3-e3e2-a889-9405eac5fbb9",
        "%vlocity_namespace%__IsDisabled__c": true,
        "%vlocity_namespace%__IsRequiredForUpsert__c": false,
        "%vlocity_namespace%__MapId__c": "CreateContractVersionLinesCustom1495",
        "%vlocity_namespace%__UpsertKey__c": false,
        "Name": "CreateContractDiscounts - Quote",
        "VlocityDataPackType": "SObject",
        "VlocityRecordSObjectType": "%vlocity_namespace%__DRMapItem__c"
    },
    {
        "%vlocity_namespace%__DomainObjectAPIName__c": "%vlocity_namespace%__ContractVersionDiscount__c",
        "%vlocity_namespace%__DomainObjectCreationOrder__c": 3,
        "%vlocity_namespace%__DomainObjectFieldAPIName__c": "Name",
        "%vlocity_namespace%__GlobalKey__c": "3cdb2e56-611f-998f-ff81-51ef58b3102e",
        "%vlocity_namespace%__InterfaceFieldAPIName__c": "Quote:Discount:Name",
        "%vlocity_namespace%__IsDisabled__c": false,
        "%vlocity_namespace%__IsRequiredForUpsert__c": false,
        "%vlocity_namespace%__MapId__c": "CreateContractVersionLinesCustom1718",
        "%vlocity_namespace%__UpsertKey__c": false,
        "Name": "CreateContractDiscounts - Quote",
        "VlocityDataPackType": "SObject",
        "VlocityRecordSObjectType": "%vlocity_namespace%__DRMapItem__c"
    },
    {
        "%vlocity_namespace%__DomainObjectAPIName__c": "%vlocity_namespace%__ContractVersionDiscountItem__c",
        "%vlocity_namespace%__DomainObjectCreationOrder__c": 4,
        "%vlocity_namespace%__DomainObjectFieldAPIName__c": "%vlocity_namespace%__CatalogCategoryId__c",
        "%vlocity_namespace%__GlobalKey__c": "47acd1c3-3343-47e2-8cdd-c93f5a1f063e",
        "%vlocity_namespace%__InterfaceFieldAPIName__c": "Quote:Discount:DiscountItem:CatalogCategoryId",
        "%vlocity_namespace%__IsDisabled__c": false,
        "%vlocity_namespace%__IsRequiredForUpsert__c": false,
        "%vlocity_namespace%__MapId__c": "CreateContractVersionLinesCustom9961",
        "%vlocity_namespace%__UpsertKey__c": false,
        "Name": "CreateContractDiscounts - Quote",
        "VlocityDataPackType": "SObject",
        "VlocityRecordSObjectType": "%vlocity_namespace%__DRMapItem__c"
    },
    {
        "%vlocity_namespace%__ConfigurationValue__c": "FAKEMAPPING",
        "%vlocity_namespace%__DomainObjectAPIName__c": "%vlocity_namespace%__ContractVersionDiscountItem__c",
        "%vlocity_namespace%__DomainObjectCreationOrder__c": 4,
        "%vlocity_namespace%__DomainObjectFieldAPIName__c": "%vlocity_namespace%__ContractVersionDiscountId__c",
        "%vlocity_namespace%__FilterOperator__c": "=",
        "%vlocity_namespace%__GlobalKey__c": "17b60f75-d193-8cc4-378c-ec4b7b89c8bc",
        "%vlocity_namespace%__IsDisabled__c": false,
        "%vlocity_namespace%__IsRequiredForUpsert__c": false,
        "%vlocity_namespace%__LinkCreatedField__c": "Id",
        "%vlocity_namespace%__LinkCreatedIndex__c": 3,
        "%vlocity_namespace%__MapId__c": "CreateContractVersionLinesCustom4335",
        "%vlocity_namespace%__UpsertKey__c": false,
        "Name": "CreateContractDiscounts - Quote",
        "VlocityDataPackType": "SObject",
        "VlocityRecordSObjectType": "%vlocity_namespace%__DRMapItem__c"
    },
    {
        "%vlocity_namespace%__DomainObjectAPIName__c": "%vlocity_namespace%__ContractVersionDiscountItem__c",
        "%vlocity_namespace%__DomainObjectCreationOrder__c": 4,
        "%vlocity_namespace%__DomainObjectFieldAPIName__c": "%vlocity_namespace%__Description__c",
        "%vlocity_namespace%__GlobalKey__c": "8e86da80-0bce-ba5d-abb1-ec138f4962f8",
        "%vlocity_namespace%__InterfaceFieldAPIName__c": "Quote:Discount:DiscountItem:Description",
        "%vlocity_namespace%__IsDisabled__c": false,
        "%vlocity_namespace%__IsRequiredForUpsert__c": false,
        "%vlocity_namespace%__MapId__c": "CreateContractVersionLinesCustom8386",
        "%vlocity_namespace%__UpsertKey__c": false,
        "Name": "CreateContractDiscounts - Quote",
        "VlocityDataPackType": "SObject",
        "VlocityRecordSObjectType": "%vlocity_namespace%__DRMapItem__c"
    },
    {
        "%vlocity_namespace%__DomainObjectAPIName__c": "%vlocity_namespace%__ContractVersionDiscountItem__c",
        "%vlocity_namespace%__DomainObjectCreationOrder__c": 4,
        "%vlocity_namespace%__DomainObjectFieldAPIName__c": "%vlocity_namespace%__ProductId__c",
        "%vlocity_namespace%__GlobalKey__c": "b1f638fa-608c-57d6-8bf3-828b78801d85",
        "%vlocity_namespace%__InterfaceFieldAPIName__c": "Quote:Discount:DiscountItem:ProductId",
        "%vlocity_namespace%__IsDisabled__c": false,
        "%vlocity_namespace%__IsRequiredForUpsert__c": false,
        "%vlocity_namespace%__MapId__c": "CreateContractVersionLinesCustom1571",
        "%vlocity_namespace%__UpsertKey__c": false,
        "Name": "CreateContractDiscounts - Quote",
        "VlocityDataPackType": "SObject",
        "VlocityRecordSObjectType": "%vlocity_namespace%__DRMapItem__c"
    },
    {
        "%vlocity_namespace%__ConfigurationValue__c": "FAKEMAPPING",
        "%vlocity_namespace%__DomainObjectAPIName__c": "%vlocity_namespace%__ContractVersionDiscountItem__c",
        "%vlocity_namespace%__DomainObjectCreationOrder__c": 4,
        "%vlocity_namespace%__DomainObjectFieldAPIName__c": "Id",
        "%vlocity_namespace%__FilterOperator__c": "=",
        "%vlocity_namespace%__GlobalKey__c": "ade40b09-44a8-b565-bb8c-7e7d13686915",
        "%vlocity_namespace%__IsDisabled__c": true,
        "%vlocity_namespace%__IsRequiredForUpsert__c": false,
        "%vlocity_namespace%__MapId__c": "CreateContractVersionLinesCustom798",
        "%vlocity_namespace%__UpsertKey__c": false,
        "Name": "CreateContractDiscounts - Quote",
        "VlocityDataPackType": "SObject",
        "VlocityRecordSObjectType": "%vlocity_namespace%__DRMapItem__c"
    },
    {
        "%vlocity_namespace%__DomainObjectAPIName__c": "%vlocity_namespace%__ContractVersionDiscountItem__c",
        "%vlocity_namespace%__DomainObjectCreationOrder__c": 4,
        "%vlocity_namespace%__DomainObjectFieldAPIName__c": "Name",
        "%vlocity_namespace%__GlobalKey__c": "88c6d887-83f8-cee1-0f2e-f5d0bd939b40",
        "%vlocity_namespace%__InterfaceFieldAPIName__c": "Quote:Discount:DiscountItem:Name",
        "%vlocity_namespace%__IsDisabled__c": false,
        "%vlocity_namespace%__IsRequiredForUpsert__c": true,
        "%vlocity_namespace%__MapId__c": "CreateContractVersionLinesCustom9986",
        "%vlocity_namespace%__UpsertKey__c": false,
        "Name": "CreateContractDiscounts - Quote",
        "VlocityDataPackType": "SObject",
        "VlocityRecordSObjectType": "%vlocity_namespace%__DRMapItem__c"
    },
    {
        "%vlocity_namespace%__DomainObjectAPIName__c": "%vlocity_namespace%__ContractVersionDiscountPricing__c",
        "%vlocity_namespace%__DomainObjectCreationOrder__c": 5,
        "%vlocity_namespace%__DomainObjectFieldAPIName__c": "%vlocity_namespace%__AdjustmentValue__c",
        "%vlocity_namespace%__GlobalKey__c": "5b5bcee7-8e03-efba-3280-9f6b8e37a4ba",
        "%vlocity_namespace%__InterfaceFieldAPIName__c": "Quote:Discount:DiscountPricing:AdjustmentValue",
        "%vlocity_namespace%__IsDisabled__c": false,
        "%vlocity_namespace%__IsRequiredForUpsert__c": false,
        "%vlocity_namespace%__MapId__c": "CreateContractVersionLinesCustom8923",
        "%vlocity_namespace%__UpsertKey__c": false,
        "Name": "CreateContractDiscounts - Quote",
        "VlocityDataPackType": "SObject",
        "VlocityRecordSObjectType": "%vlocity_namespace%__DRMapItem__c"
    },
    {
        "%vlocity_namespace%__DomainObjectAPIName__c": "%vlocity_namespace%__ContractVersionDiscountPricing__c",
        "%vlocity_namespace%__DomainObjectCreationOrder__c": 5,
        "%vlocity_namespace%__DomainObjectFieldAPIName__c": "%vlocity_namespace%__Amount__c",
        "%vlocity_namespace%__GlobalKey__c": "88891338-8681-44d5-be52-3fee7fe2fd16",
        "%vlocity_namespace%__InterfaceFieldAPIName__c": "Quote:Discount:DiscountPricing:Amount",
        "%vlocity_namespace%__IsDisabled__c": false,
        "%vlocity_namespace%__IsRequiredForUpsert__c": false,
        "%vlocity_namespace%__MapId__c": "CreateContractVersionLinesCustom8112",
        "%vlocity_namespace%__UpsertKey__c": false,
        "Name": "CreateContractDiscounts - Quote",
        "VlocityDataPackType": "SObject",
        "VlocityRecordSObjectType": "%vlocity_namespace%__DRMapItem__c"
    },
    {
        "%vlocity_namespace%__ConfigurationValue__c": "FAKEMAPPING",
        "%vlocity_namespace%__DomainObjectAPIName__c": "%vlocity_namespace%__ContractVersionDiscountPricing__c",
        "%vlocity_namespace%__DomainObjectCreationOrder__c": 5,
        "%vlocity_namespace%__DomainObjectFieldAPIName__c": "%vlocity_namespace%__ContractVersionDiscountId__c",
        "%vlocity_namespace%__FilterOperator__c": "=",
        "%vlocity_namespace%__GlobalKey__c": "c35c4422-962d-9008-7494-4838c5149d5e",
        "%vlocity_namespace%__IsDisabled__c": false,
        "%vlocity_namespace%__IsRequiredForUpsert__c": false,
        "%vlocity_namespace%__LinkCreatedField__c": "Id",
        "%vlocity_namespace%__LinkCreatedIndex__c": 3,
        "%vlocity_namespace%__MapId__c": "CreateContractVersionLinesCustom6305",
        "%vlocity_namespace%__UpsertKey__c": false,
        "Name": "CreateContractDiscounts - Quote",
        "VlocityDataPackType": "SObject",
        "VlocityRecordSObjectType": "%vlocity_namespace%__DRMapItem__c"
    },
    {
        "%vlocity_namespace%__DomainObjectAPIName__c": "%vlocity_namespace%__ContractVersionDiscountPricing__c",
        "%vlocity_namespace%__DomainObjectCreationOrder__c": 5,
        "%vlocity_namespace%__DomainObjectFieldAPIName__c": "%vlocity_namespace%__PricingVariableId__c",
        "%vlocity_namespace%__GlobalKey__c": "61ca040b-d6df-a70d-e672-ee4d4b9ecc15",
        "%vlocity_namespace%__InterfaceFieldAPIName__c": "Quote:Discount:DiscountPricing:PricingVariableId",
        "%vlocity_namespace%__IsDisabled__c": false,
        "%vlocity_namespace%__IsRequiredForUpsert__c": false,
        "%vlocity_namespace%__MapId__c": "CreateContractVersionLinesCustom4548",
        "%vlocity_namespace%__UpsertKey__c": false,
        "Name": "CreateContractDiscounts - Quote",
        "VlocityDataPackType": "SObject",
        "VlocityRecordSObjectType": "%vlocity_namespace%__DRMapItem__c"
    },
    {
        "%vlocity_namespace%__DomainObjectAPIName__c": "%vlocity_namespace%__ContractVersionDiscountPricing__c",
        "%vlocity_namespace%__DomainObjectCreationOrder__c": 5,
        "%vlocity_namespace%__DomainObjectFieldAPIName__c": "%vlocity_namespace%__TimePlanId__c",
        "%vlocity_namespace%__GlobalKey__c": "f89cb3ea-1239-a422-402f-077f795ee387",
        "%vlocity_namespace%__InterfaceFieldAPIName__c": "Quote:Discount:DiscountPricing:TimePlanId",
        "%vlocity_namespace%__IsDisabled__c": false,
        "%vlocity_namespace%__IsRequiredForUpsert__c": false,
        "%vlocity_namespace%__MapId__c": "CreateContractVersionLinesCustom9740",
        "%vlocity_namespace%__UpsertKey__c": false,
        "Name": "CreateContractDiscounts - Quote",
        "VlocityDataPackType": "SObject",
        "VlocityRecordSObjectType": "%vlocity_namespace%__DRMapItem__c"
    },
    {
        "%vlocity_namespace%__DomainObjectAPIName__c": "%vlocity_namespace%__ContractVersionDiscountPricing__c",
        "%vlocity_namespace%__DomainObjectCreationOrder__c": 5,
        "%vlocity_namespace%__DomainObjectFieldAPIName__c": "%vlocity_namespace%__TimePolicyId__c",
        "%vlocity_namespace%__GlobalKey__c": "6b3ec1eb-a232-26f4-0ea4-4a61ae3c049a",
        "%vlocity_namespace%__InterfaceFieldAPIName__c": "Quote:Discount:DiscountPricing:TimePolicyId",
        "%vlocity_namespace%__IsDisabled__c": false,
        "%vlocity_namespace%__IsRequiredForUpsert__c": false,
        "%vlocity_namespace%__MapId__c": "CreateContractVersionLinesCustom2074",
        "%vlocity_namespace%__UpsertKey__c": false,
        "Name": "CreateContractDiscounts - Quote",
        "VlocityDataPackType": "SObject",
        "VlocityRecordSObjectType": "%vlocity_namespace%__DRMapItem__c"
    },
    {
        "%vlocity_namespace%__ConfigurationValue__c": "FAKEMAPPING",
        "%vlocity_namespace%__DomainObjectAPIName__c": "%vlocity_namespace%__ContractVersionDiscountPricing__c",
        "%vlocity_namespace%__DomainObjectCreationOrder__c": 5,
        "%vlocity_namespace%__DomainObjectFieldAPIName__c": "Id",
        "%vlocity_namespace%__FilterOperator__c": "=",
        "%vlocity_namespace%__GlobalKey__c": "64a34d34-8348-3e44-d0ad-a5ec0e93b867",
        "%vlocity_namespace%__IsDisabled__c": true,
        "%vlocity_namespace%__IsRequiredForUpsert__c": false,
        "%vlocity_namespace%__MapId__c": "CreateContractVersionLinesCustom2971",
        "%vlocity_namespace%__UpsertKey__c": false,
        "Name": "CreateContractDiscounts - Quote",
        "VlocityDataPackType": "SObject",
        "VlocityRecordSObjectType": "%vlocity_namespace%__DRMapItem__c"
    },
    {
        "%vlocity_namespace%__DomainObjectAPIName__c": "%vlocity_namespace%__ContractVersionDiscountPricing__c",
        "%vlocity_namespace%__DomainObjectCreationOrder__c": 5,
        "%vlocity_namespace%__DomainObjectFieldAPIName__c": "Name",
        "%vlocity_namespace%__GlobalKey__c": "b3f98b08-efb3-a82f-69a7-044429a68645",
        "%vlocity_namespace%__InterfaceFieldAPIName__c": "Quote:Discount:DiscountPricing:Name",
        "%vlocity_namespace%__IsDisabled__c": false,
        "%vlocity_namespace%__IsRequiredForUpsert__c": true,
        "%vlocity_namespace%__MapId__c": "CreateContractVersionLinesCustom3597",
        "%vlocity_namespace%__UpsertKey__c": false,
        "Name": "CreateContractDiscounts - Quote",
        "VlocityDataPackType": "SObject",
        "VlocityRecordSObjectType": "%vlocity_namespace%__DRMapItem__c"
    },
    {
        "%vlocity_namespace%__ConfigurationValue__c": "FAKEMAPPING",
        "%vlocity_namespace%__DomainObjectAPIName__c": "Contact",
        "%vlocity_namespace%__DomainObjectCreationOrder__c": 6,
        "%vlocity_namespace%__DomainObjectFieldAPIName__c": "Description",
        "%vlocity_namespace%__FilterOperator__c": "=",
        "%vlocity_namespace%__GlobalKey__c": "40dbd35d-4c55-9abd-b01e-765eb4b9fb0e",
        "%vlocity_namespace%__IsDisabled__c": false,
        "%vlocity_namespace%__IsRequiredForUpsert__c": false,
        "%vlocity_namespace%__LinkCreatedField__c": "Id",
        "%vlocity_namespace%__LinkCreatedIndex__c": 1,
        "%vlocity_namespace%__MapId__c": "CreateContractDiscounts - QuoteCustom3618",
        "%vlocity_namespace%__UpsertKey__c": false,
        "Name": "CreateContractDiscounts - Quote",
        "VlocityDataPackType": "SObject",
        "VlocityRecordSObjectType": "%vlocity_namespace%__DRMapItem__c"
    },
    {
        "%vlocity_namespace%__ConfigurationValue__c": "FAKEMAPPING",
        "%vlocity_namespace%__DomainObjectAPIName__c": "Contact",
        "%vlocity_namespace%__DomainObjectCreationOrder__c": 6,
        "%vlocity_namespace%__DomainObjectFieldAPIName__c": "Id",
        "%vlocity_namespace%__FilterOperator__c": "=",
        "%vlocity_namespace%__GlobalKey__c": "71fc691e-abab-bb13-701b-13ef5cc23baf",
        "%vlocity_namespace%__IsDisabled__c": true,
        "%vlocity_namespace%__IsRequiredForUpsert__c": false,
        "%vlocity_namespace%__MapId__c": "CreateContractDiscounts - QuoteCustom7622",
        "%vlocity_namespace%__UpsertKey__c": false,
        "Name": "CreateContractDiscounts - Quote",
        "VlocityDataPackType": "SObject",
        "VlocityRecordSObjectType": "%vlocity_namespace%__DRMapItem__c"
    }
]