[
    {
        "%vlocity_namespace%__DomainObjectAPIName__c": "json",
        "%vlocity_namespace%__DomainObjectCreationOrder__c": 0,
        "%vlocity_namespace%__DomainObjectFieldAPIName__c": "Contract",
        "%vlocity_namespace%__FilterGroup__c": 0,
        "%vlocity_namespace%__FilterOperator__c": "=",
        "%vlocity_namespace%__FilterValue__c": "'true'",
        "%vlocity_namespace%__GlobalKey__c": "419819a7-20ea-3e0f-41bc-a86a89083b8a",
        "%vlocity_namespace%__InterfaceFieldAPIName__c": "%vlocity_namespace%__IsFrameContract__c",
        "%vlocity_namespace%__InterfaceObjectLookupOrder__c": 1,
        "%vlocity_namespace%__InterfaceObjectName__c": "Contract",
        "%vlocity_namespace%__IsDisabled__c": false,
        "%vlocity_namespace%__IsRequiredForUpsert__c": false,
        "%vlocity_namespace%__MapId__c": "FrameContractExtract-QuoteCustom2975",
        "%vlocity_namespace%__UpsertKey__c": false,
        "Name": "AmendFrameContractExtract-Quote",
        "VlocityDataPackType": "SObject",
        "VlocityRecordSObjectType": "%vlocity_namespace%__DRMapItem__c"
    },
    {
        "%vlocity_namespace%__DomainObjectAPIName__c": "json",
        "%vlocity_namespace%__DomainObjectCreationOrder__c": 0,
        "%vlocity_namespace%__DomainObjectFieldAPIName__c": "Contract",
        "%vlocity_namespace%__FilterGroup__c": 0,
        "%vlocity_namespace%__FilterOperator__c": "=",
        "%vlocity_namespace%__FilterValue__c": "Id",
        "%vlocity_namespace%__GlobalKey__c": "af7e09da-a655-0296-83f9-963327fe84df",
        "%vlocity_namespace%__InterfaceFieldAPIName__c": "Id",
        "%vlocity_namespace%__InterfaceObjectLookupOrder__c": 1,
        "%vlocity_namespace%__InterfaceObjectName__c": "Contract",
        "%vlocity_namespace%__IsDisabled__c": false,
        "%vlocity_namespace%__IsRequiredForUpsert__c": false,
        "%vlocity_namespace%__MapId__c": "FrameContractExtract-QuoteCustom5055",
        "%vlocity_namespace%__UpsertKey__c": false,
        "Name": "AmendFrameContractExtract-Quote",
        "VlocityDataPackType": "SObject",
        "VlocityRecordSObjectType": "%vlocity_namespace%__DRMapItem__c"
    },
    {
        "%vlocity_namespace%__DomainObjectAPIName__c": "json",
        "%vlocity_namespace%__DomainObjectCreationOrder__c": 0,
        "%vlocity_namespace%__DomainObjectFieldAPIName__c": "Contract",
        "%vlocity_namespace%__FilterGroup__c": 0,
        "%vlocity_namespace%__FilterOperator__c": "=",
        "%vlocity_namespace%__FilterValue__c": "'Activated'",
        "%vlocity_namespace%__GlobalKey__c": "3325b297-d1f4-c9cf-b3fa-18a8a3c15c9f",
        "%vlocity_namespace%__InterfaceFieldAPIName__c": "Status",
        "%vlocity_namespace%__InterfaceObjectLookupOrder__c": 1,
        "%vlocity_namespace%__InterfaceObjectName__c": "Contract",
        "%vlocity_namespace%__IsDisabled__c": false,
        "%vlocity_namespace%__IsRequiredForUpsert__c": false,
        "%vlocity_namespace%__MapId__c": "FrameContractExtract-QuoteCustom9782",
        "%vlocity_namespace%__UpsertKey__c": false,
        "Name": "AmendFrameContractExtract-Quote",
        "VlocityDataPackType": "SObject",
        "VlocityRecordSObjectType": "%vlocity_namespace%__DRMapItem__c"
    },
    {
        "%vlocity_namespace%__DomainObjectAPIName__c": "json",
        "%vlocity_namespace%__DomainObjectCreationOrder__c": 0,
        "%vlocity_namespace%__DomainObjectFieldAPIName__c": "Contract:Quote",
        "%vlocity_namespace%__FilterGroup__c": 0,
        "%vlocity_namespace%__FilterOperator__c": "=",
        "%vlocity_namespace%__FilterValue__c": "Contract:%vlocity_namespace%__QuoteId__c",
        "%vlocity_namespace%__GlobalKey__c": "ecfb5d45-7e17-cd65-d4f3-ebe39a96ace4",
        "%vlocity_namespace%__InterfaceFieldAPIName__c": "Id",
        "%vlocity_namespace%__InterfaceObjectLookupOrder__c": 2,
        "%vlocity_namespace%__InterfaceObjectName__c": "Quote",
        "%vlocity_namespace%__IsDisabled__c": false,
        "%vlocity_namespace%__IsRequiredForUpsert__c": false,
        "%vlocity_namespace%__MapId__c": "AmendFrameContractExtract-QuoteCustom8350",
        "%vlocity_namespace%__UpsertKey__c": false,
        "Name": "AmendFrameContractExtract-Quote",
        "VlocityDataPackType": "SObject",
        "VlocityRecordSObjectType": "%vlocity_namespace%__DRMapItem__c"
    },
    {
        "%vlocity_namespace%__DomainObjectAPIName__c": "json",
        "%vlocity_namespace%__DomainObjectCreationOrder__c": 1,
        "%vlocity_namespace%__DomainObjectFieldAPIName__c": "Contract:AccountId",
        "%vlocity_namespace%__GlobalKey__c": "07dcfd43-fadd-21f7-cecb-5f34f27427bd",
        "%vlocity_namespace%__InterfaceFieldAPIName__c": "Contract:AccountId",
        "%vlocity_namespace%__IsDisabled__c": false,
        "%vlocity_namespace%__IsRequiredForUpsert__c": false,
        "%vlocity_namespace%__MapId__c": "FrameContractExtract-QuoteCustom226",
        "%vlocity_namespace%__UpsertKey__c": false,
        "Name": "AmendFrameContractExtract-Quote",
        "VlocityDataPackType": "SObject",
        "VlocityRecordSObjectType": "%vlocity_namespace%__DRMapItem__c"
    },
    {
        "%vlocity_namespace%__DomainObjectAPIName__c": "json",
        "%vlocity_namespace%__DomainObjectCreationOrder__c": 1,
        "%vlocity_namespace%__DomainObjectFieldAPIName__c": "Contract:FrameContractId",
        "%vlocity_namespace%__GlobalKey__c": "58afd145-d4b7-6852-e752-d016f70689d4",
        "%vlocity_namespace%__InterfaceFieldAPIName__c": "Contract:Id",
        "%vlocity_namespace%__IsDisabled__c": false,
        "%vlocity_namespace%__IsRequiredForUpsert__c": false,
        "%vlocity_namespace%__MapId__c": "FrameContractExtract-QuoteCustom9700",
        "%vlocity_namespace%__UpsertKey__c": false,
        "Name": "AmendFrameContractExtract-Quote",
        "VlocityDataPackType": "SObject",
        "VlocityRecordSObjectType": "%vlocity_namespace%__DRMapItem__c"
    },
    {
        "%vlocity_namespace%__DomainObjectAPIName__c": "json",
        "%vlocity_namespace%__DomainObjectCreationOrder__c": 1,
        "%vlocity_namespace%__DomainObjectFieldAPIName__c": "Contract:Name",
        "%vlocity_namespace%__GlobalKey__c": "4a90bbc8-2a85-e1d6-8d50-8606cbcbb420",
        "%vlocity_namespace%__InterfaceFieldAPIName__c": "Contract:Name",
        "%vlocity_namespace%__IsDisabled__c": false,
        "%vlocity_namespace%__IsRequiredForUpsert__c": false,
        "%vlocity_namespace%__MapId__c": "FrameContractExtract-QuoteCustom6477",
        "%vlocity_namespace%__UpsertKey__c": false,
        "Name": "AmendFrameContractExtract-Quote",
        "VlocityDataPackType": "SObject",
        "VlocityRecordSObjectType": "%vlocity_namespace%__DRMapItem__c"
    },
    {
        "%vlocity_namespace%__DomainObjectAPIName__c": "json",
        "%vlocity_namespace%__DomainObjectCreationOrder__c": 1,
        "%vlocity_namespace%__DomainObjectFieldAPIName__c": "Contract:Quote:Id",
        "%vlocity_namespace%__GlobalKey__c": "bd75c97a-c475-eace-29a4-18505860613d",
        "%vlocity_namespace%__InterfaceFieldAPIName__c": "Contract:%vlocity_namespace%__QuoteId__c",
        "%vlocity_namespace%__IsDisabled__c": false,
        "%vlocity_namespace%__IsRequiredForUpsert__c": false,
        "%vlocity_namespace%__MapId__c": "FrameContractExtract-QuoteCustom438",
        "%vlocity_namespace%__UpsertKey__c": false,
        "Name": "AmendFrameContractExtract-Quote",
        "VlocityDataPackType": "SObject",
        "VlocityRecordSObjectType": "%vlocity_namespace%__DRMapItem__c"
    },
    {
        "%vlocity_namespace%__DomainObjectAPIName__c": "json",
        "%vlocity_namespace%__DomainObjectCreationOrder__c": 1,
        "%vlocity_namespace%__DomainObjectFieldAPIName__c": "Contract:Quote:Id",
        "%vlocity_namespace%__GlobalKey__c": "15b11521-0da5-7060-ac0c-e28d62e607e5",
        "%vlocity_namespace%__InterfaceFieldAPIName__c": "Contract:Quote:Id",
        "%vlocity_namespace%__IsDisabled__c": false,
        "%vlocity_namespace%__IsRequiredForUpsert__c": false,
        "%vlocity_namespace%__MapId__c": "FrameContractExtract-QuoteCustom688",
        "%vlocity_namespace%__UpsertKey__c": false,
        "Name": "AmendFrameContractExtract-Quote",
        "VlocityDataPackType": "SObject",
        "VlocityRecordSObjectType": "%vlocity_namespace%__DRMapItem__c"
    },
    {
        "%vlocity_namespace%__DomainObjectAPIName__c": "json",
        "%vlocity_namespace%__DomainObjectCreationOrder__c": 1,
        "%vlocity_namespace%__DomainObjectFieldAPIName__c": "Contract:Quote:Name",
        "%vlocity_namespace%__GlobalKey__c": "2e1267ae-6a33-2a6f-0523-ccf015cfa87f",
        "%vlocity_namespace%__InterfaceFieldAPIName__c": "Contract:Quote:Name",
        "%vlocity_namespace%__IsDisabled__c": false,
        "%vlocity_namespace%__IsRequiredForUpsert__c": false,
        "%vlocity_namespace%__MapId__c": "AmendFrameContractExtract-QuoteCustom9199",
        "%vlocity_namespace%__UpsertKey__c": false,
        "Name": "AmendFrameContractExtract-Quote",
        "VlocityDataPackType": "SObject",
        "VlocityRecordSObjectType": "%vlocity_namespace%__DRMapItem__c"
    },
    {
        "%vlocity_namespace%__DomainObjectAPIName__c": "json",
        "%vlocity_namespace%__DomainObjectCreationOrder__c": 1,
        "%vlocity_namespace%__DomainObjectFieldAPIName__c": "Contract:Quote:OptyId",
        "%vlocity_namespace%__GlobalKey__c": "88346516-acdf-8c3e-8394-3c6f81c37d4a",
        "%vlocity_namespace%__InterfaceFieldAPIName__c": "Contract:Quote:OpportunityId",
        "%vlocity_namespace%__IsDisabled__c": false,
        "%vlocity_namespace%__IsRequiredForUpsert__c": false,
        "%vlocity_namespace%__MapId__c": "FrameContractExtract-QuoteCustom2033",
        "%vlocity_namespace%__UpsertKey__c": false,
        "Name": "AmendFrameContractExtract-Quote",
        "VlocityDataPackType": "SObject",
        "VlocityRecordSObjectType": "%vlocity_namespace%__DRMapItem__c"
    },
    {
        "%vlocity_namespace%__DomainObjectAPIName__c": "json",
        "%vlocity_namespace%__DomainObjectCreationOrder__c": 1,
        "%vlocity_namespace%__DomainObjectFieldAPIName__c": "Contract:isFrameContract__c",
        "%vlocity_namespace%__GlobalKey__c": "b7651634-5e2c-5dff-573d-071827586ba0",
        "%vlocity_namespace%__InterfaceFieldAPIName__c": "Contract:%vlocity_namespace%__IsFrameContract__c",
        "%vlocity_namespace%__IsDisabled__c": false,
        "%vlocity_namespace%__IsRequiredForUpsert__c": false,
        "%vlocity_namespace%__MapId__c": "FrameContractExtract-QuoteCustom7613",
        "%vlocity_namespace%__UpsertKey__c": false,
        "Name": "AmendFrameContractExtract-Quote",
        "VlocityDataPackType": "SObject",
        "VlocityRecordSObjectType": "%vlocity_namespace%__DRMapItem__c"
    }
]