[
    {
        "%vlocity_namespace%__DomainObjectAPIName__c": "Formula",
        "%vlocity_namespace%__DomainObjectCreationOrder__c": 0,
        "%vlocity_namespace%__DomainObjectFieldAPIName__c": "Formula",
        "%vlocity_namespace%__FormulaOrder__c": 1,
        "%vlocity_namespace%__FormulaResultPath__c": "Contract:Id",
        "%vlocity_namespace%__Formula__c": "Contract:id",
        "%vlocity_namespace%__GlobalKey__c": "163da5b2-d4a7-6957-134e-d9665eded02e",
        "%vlocity_namespace%__IsDisabled__c": false,
        "%vlocity_namespace%__IsRequiredForUpsert__c": false,
        "%vlocity_namespace%__MapId__c": "UpdateContractDiscounts - OrderCustoma0Nf4000004AIk9EAGItem0",
        "%vlocity_namespace%__UpsertKey__c": false,
        "Name": "UpdateContractDiscounts - Order",
        "VlocityDataPackType": "SObject",
        "VlocityRecordSObjectType": "%vlocity_namespace%__DRMapItem__c"
    },
    {
        "%vlocity_namespace%__DomainObjectAPIName__c": "Contract",
        "%vlocity_namespace%__DomainObjectCreationOrder__c": 1,
        "%vlocity_namespace%__DomainObjectFieldAPIName__c": "%vlocity_namespace%__IsFrameContract__c",
        "%vlocity_namespace%__GlobalKey__c": "75a4b188-c850-9bff-b37e-85a04fd05f39",
        "%vlocity_namespace%__InterfaceFieldAPIName__c": "isFrameContract",
        "%vlocity_namespace%__IsDisabled__c": false,
        "%vlocity_namespace%__IsRequiredForUpsert__c": false,
        "%vlocity_namespace%__MapId__c": "UpdateContractDiscounts - OrderCustoma0Nf4000004AIk9EAGItem2",
        "%vlocity_namespace%__UpsertKey__c": false,
        "Name": "UpdateContractDiscounts - Order",
        "VlocityDataPackType": "SObject",
        "VlocityRecordSObjectType": "%vlocity_namespace%__DRMapItem__c"
    },
    {
        "%vlocity_namespace%__DomainObjectAPIName__c": "Contract",
        "%vlocity_namespace%__DomainObjectCreationOrder__c": 1,
        "%vlocity_namespace%__DomainObjectFieldAPIName__c": "%vlocity_namespace%__OrderId__c",
        "%vlocity_namespace%__GlobalKey__c": "29371a17-f95f-3a9e-9f3e-fc7109d104b5",
        "%vlocity_namespace%__InterfaceFieldAPIName__c": "OrderId",
        "%vlocity_namespace%__IsDisabled__c": false,
        "%vlocity_namespace%__IsRequiredForUpsert__c": false,
        "%vlocity_namespace%__MapId__c": "UpdateContractDiscounts - OrderCustoma0Nf4000004AIk9EAGItem7",
        "%vlocity_namespace%__UpsertKey__c": false,
        "Name": "UpdateContractDiscounts - Order",
        "VlocityDataPackType": "SObject",
        "VlocityRecordSObjectType": "%vlocity_namespace%__DRMapItem__c"
    },
    {
        "%vlocity_namespace%__DomainObjectAPIName__c": "Contract",
        "%vlocity_namespace%__DomainObjectCreationOrder__c": 1,
        "%vlocity_namespace%__DomainObjectFieldAPIName__c": "%vlocity_namespace%__OriginalContractId__c",
        "%vlocity_namespace%__GlobalKey__c": "66f0ba9f-80b2-c9c2-b79b-3350a2d686af",
        "%vlocity_namespace%__InterfaceFieldAPIName__c": "Order:originalFrameContractId",
        "%vlocity_namespace%__IsDisabled__c": false,
        "%vlocity_namespace%__IsRequiredForUpsert__c": false,
        "%vlocity_namespace%__MapId__c": "UpdateContractDiscounts - OrderCustoma0Nf4000004AIk9EAGItem6",
        "%vlocity_namespace%__UpsertKey__c": false,
        "Name": "UpdateContractDiscounts - Order",
        "VlocityDataPackType": "SObject",
        "VlocityRecordSObjectType": "%vlocity_namespace%__DRMapItem__c"
    },
    {
        "%vlocity_namespace%__DomainObjectAPIName__c": "Contract",
        "%vlocity_namespace%__DomainObjectCreationOrder__c": 1,
        "%vlocity_namespace%__DomainObjectFieldAPIName__c": "AccountId",
        "%vlocity_namespace%__GlobalKey__c": "769abbe8-64a7-d022-ed65-7a6764fa512f",
        "%vlocity_namespace%__InterfaceFieldAPIName__c": "Order:AccountId",
        "%vlocity_namespace%__InterfaceObjectName__c": "json",
        "%vlocity_namespace%__IsDisabled__c": false,
        "%vlocity_namespace%__IsRequiredForUpsert__c": false,
        "%vlocity_namespace%__LinkCreatedIndex__c": 0,
        "%vlocity_namespace%__MapId__c": "UpdateContractDiscounts - OrderCustoma0Nf4000004AIk9EAGItem3",
        "%vlocity_namespace%__UpsertKey__c": false,
        "Name": "UpdateContractDiscounts - Order",
        "VlocityDataPackType": "SObject",
        "VlocityRecordSObjectType": "%vlocity_namespace%__DRMapItem__c"
    },
    {
        "%vlocity_namespace%__DomainObjectAPIName__c": "Contract",
        "%vlocity_namespace%__DomainObjectCreationOrder__c": 1,
        "%vlocity_namespace%__DomainObjectFieldAPIName__c": "Id",
        "%vlocity_namespace%__GlobalKey__c": "583878bf-7e97-23e6-7313-7eaca85ca4d7",
        "%vlocity_namespace%__InterfaceFieldAPIName__c": "Order:FrameContract:Id",
        "%vlocity_namespace%__IsDisabled__c": false,
        "%vlocity_namespace%__IsRequiredForUpsert__c": false,
        "%vlocity_namespace%__MapId__c": "UpdateContractDiscounts - OrderCustoma0Nf4000004AIk9EAGItem4",
        "%vlocity_namespace%__UpsertKey__c": true,
        "Name": "UpdateContractDiscounts - Order",
        "VlocityDataPackType": "SObject",
        "VlocityRecordSObjectType": "%vlocity_namespace%__DRMapItem__c"
    },
    {
        "%vlocity_namespace%__DomainObjectAPIName__c": "Contract",
        "%vlocity_namespace%__DomainObjectCreationOrder__c": 1,
        "%vlocity_namespace%__DomainObjectFieldAPIName__c": "Name",
        "%vlocity_namespace%__GlobalKey__c": "275b0947-29d1-972c-73e2-3f35f31b9cec",
        "%vlocity_namespace%__InterfaceFieldAPIName__c": "Order:Name",
        "%vlocity_namespace%__InterfaceObjectName__c": "json",
        "%vlocity_namespace%__IsDisabled__c": false,
        "%vlocity_namespace%__IsRequiredForUpsert__c": false,
        "%vlocity_namespace%__LinkCreatedIndex__c": 0,
        "%vlocity_namespace%__MapId__c": "UpdateContractDiscounts - OrderCustoma0Nf4000004AIk9EAGItem5",
        "%vlocity_namespace%__UpsertKey__c": false,
        "Name": "UpdateContractDiscounts - Order",
        "VlocityDataPackType": "SObject",
        "VlocityRecordSObjectType": "%vlocity_namespace%__DRMapItem__c"
    },
    {
        "%vlocity_namespace%__DomainObjectAPIName__c": "Contract",
        "%vlocity_namespace%__DomainObjectCreationOrder__c": 1,
        "%vlocity_namespace%__DomainObjectFieldAPIName__c": "Status",
        "%vlocity_namespace%__GlobalKey__c": "1abd2772-a2e0-c87b-0399-00527b9f0166",
        "%vlocity_namespace%__InterfaceFieldAPIName__c": "ContractStatus",
        "%vlocity_namespace%__IsDisabled__c": false,
        "%vlocity_namespace%__IsRequiredForUpsert__c": false,
        "%vlocity_namespace%__MapId__c": "UpdateContractDiscounts - OrderCustoma0Nf4000004AIk9EAGItem1",
        "%vlocity_namespace%__UpsertKey__c": false,
        "Name": "UpdateContractDiscounts - Order",
        "VlocityDataPackType": "SObject",
        "VlocityRecordSObjectType": "%vlocity_namespace%__DRMapItem__c"
    },
    {
        "%vlocity_namespace%__DomainObjectAPIName__c": "%vlocity_namespace%__ContractVersion__c",
        "%vlocity_namespace%__DomainObjectCreationOrder__c": 2,
        "%vlocity_namespace%__DomainObjectFieldAPIName__c": "%vlocity_namespace%__ContractId__c",
        "%vlocity_namespace%__GlobalKey__c": "df0e5c2a-d2f8-7bcb-75cc-3d4af5993453",
        "%vlocity_namespace%__InterfaceFieldAPIName__c": "Order:FrameContract:Id",
        "%vlocity_namespace%__IsDisabled__c": false,
        "%vlocity_namespace%__IsRequiredForUpsert__c": false,
        "%vlocity_namespace%__MapId__c": "UpdateContractDiscounts - OrderCustoma0Nf4000004AIk9EAGItem10",
        "%vlocity_namespace%__UpsertKey__c": false,
        "Name": "UpdateContractDiscounts - Order",
        "VlocityDataPackType": "SObject",
        "VlocityRecordSObjectType": "%vlocity_namespace%__DRMapItem__c"
    },
    {
        "%vlocity_namespace%__ConfigurationValue__c": "FAKEMAPPING",
        "%vlocity_namespace%__DomainObjectAPIName__c": "%vlocity_namespace%__ContractVersion__c",
        "%vlocity_namespace%__DomainObjectCreationOrder__c": 2,
        "%vlocity_namespace%__DomainObjectFieldAPIName__c": "%vlocity_namespace%__ContractId__c",
        "%vlocity_namespace%__FilterOperator__c": "=",
        "%vlocity_namespace%__GlobalKey__c": "9fc321ed-a3c3-805b-2dde-4d9b0c101be9",
        "%vlocity_namespace%__IsDisabled__c": false,
        "%vlocity_namespace%__IsRequiredForUpsert__c": false,
        "%vlocity_namespace%__LinkCreatedField__c": "Id",
        "%vlocity_namespace%__LinkCreatedIndex__c": 1,
        "%vlocity_namespace%__MapId__c": "UpdateContractDiscounts - OrderCustoma0Nf4000004AIk9EAGItem9",
        "%vlocity_namespace%__UpsertKey__c": false,
        "Name": "UpdateContractDiscounts - Order",
        "VlocityDataPackType": "SObject",
        "VlocityRecordSObjectType": "%vlocity_namespace%__DRMapItem__c"
    },
    {
        "%vlocity_namespace%__DomainObjectAPIName__c": "%vlocity_namespace%__ContractVersion__c",
        "%vlocity_namespace%__DomainObjectCreationOrder__c": 2,
        "%vlocity_namespace%__DomainObjectFieldAPIName__c": "%vlocity_namespace%__DocumentTemplateId__c",
        "%vlocity_namespace%__GlobalKey__c": "dde3bbfe-7d8c-10f3-a8c1-825d8ffdb570",
        "%vlocity_namespace%__InterfaceFieldAPIName__c": "Order:FrameContract:Version:DocumentTemplateId",
        "%vlocity_namespace%__IsDisabled__c": false,
        "%vlocity_namespace%__IsRequiredForUpsert__c": false,
        "%vlocity_namespace%__MapId__c": "UpdateContractDiscounts - OrderCustom5874",
        "%vlocity_namespace%__UpsertKey__c": false,
        "Name": "UpdateContractDiscounts - Order",
        "VlocityDataPackType": "SObject",
        "VlocityRecordSObjectType": "%vlocity_namespace%__DRMapItem__c"
    },
    {
        "%vlocity_namespace%__DomainObjectAPIName__c": "%vlocity_namespace%__ContractVersion__c",
        "%vlocity_namespace%__DomainObjectCreationOrder__c": 2,
        "%vlocity_namespace%__DomainObjectFieldAPIName__c": "%vlocity_namespace%__Status__c",
        "%vlocity_namespace%__GlobalKey__c": "956ad793-c9f8-f3f8-c310-ef68313fa624",
        "%vlocity_namespace%__InterfaceFieldAPIName__c": "VersionStatus",
        "%vlocity_namespace%__IsDisabled__c": false,
        "%vlocity_namespace%__IsRequiredForUpsert__c": false,
        "%vlocity_namespace%__MapId__c": "UpdateContractDiscounts - OrderCustoma0Nf4000004AIk9EAGItem11",
        "%vlocity_namespace%__UpsertKey__c": false,
        "Name": "UpdateContractDiscounts - Order",
        "VlocityDataPackType": "SObject",
        "VlocityRecordSObjectType": "%vlocity_namespace%__DRMapItem__c"
    },
    {
        "%vlocity_namespace%__ConfigurationValue__c": "FAKEMAPPING",
        "%vlocity_namespace%__DomainObjectAPIName__c": "%vlocity_namespace%__ContractVersion__c",
        "%vlocity_namespace%__DomainObjectCreationOrder__c": 2,
        "%vlocity_namespace%__DomainObjectFieldAPIName__c": "Id",
        "%vlocity_namespace%__FilterOperator__c": "=",
        "%vlocity_namespace%__GlobalKey__c": "03bbbcb1-bbc2-9a6a-2caf-a854310d9498",
        "%vlocity_namespace%__IsDisabled__c": true,
        "%vlocity_namespace%__IsRequiredForUpsert__c": false,
        "%vlocity_namespace%__MapId__c": "UpdateContractDiscounts - OrderCustoma0Nf4000004AIk9EAGItem8",
        "%vlocity_namespace%__UpsertKey__c": false,
        "Name": "UpdateContractDiscounts - Order",
        "VlocityDataPackType": "SObject",
        "VlocityRecordSObjectType": "%vlocity_namespace%__DRMapItem__c"
    },
    {
        "%vlocity_namespace%__DomainObjectAPIName__c": "%vlocity_namespace%__ContractVersionDiscount__c",
        "%vlocity_namespace%__DomainObjectCreationOrder__c": 3,
        "%vlocity_namespace%__DomainObjectFieldAPIName__c": "%vlocity_namespace%__AppliesToAllItems__c",
        "%vlocity_namespace%__GlobalKey__c": "b2c95292-7d45-1f00-48db-30bfd4d8dbda",
        "%vlocity_namespace%__InterfaceFieldAPIName__c": "Order:FrameContract:Version:Discount:AppliesToAllItems",
        "%vlocity_namespace%__IsDisabled__c": false,
        "%vlocity_namespace%__IsRequiredForUpsert__c": false,
        "%vlocity_namespace%__MapId__c": "UpdateContractDiscounts - OrderCustom6410",
        "%vlocity_namespace%__UpsertKey__c": false,
        "Name": "UpdateContractDiscounts - Order",
        "VlocityDataPackType": "SObject",
        "VlocityRecordSObjectType": "%vlocity_namespace%__DRMapItem__c"
    },
    {
        "%vlocity_namespace%__ConfigurationValue__c": "FAKEMAPPING",
        "%vlocity_namespace%__DomainObjectAPIName__c": "%vlocity_namespace%__ContractVersionDiscount__c",
        "%vlocity_namespace%__DomainObjectCreationOrder__c": 3,
        "%vlocity_namespace%__DomainObjectFieldAPIName__c": "%vlocity_namespace%__ContractVersionId__c",
        "%vlocity_namespace%__FilterOperator__c": "=",
        "%vlocity_namespace%__GlobalKey__c": "ca958e70-64b9-ded1-9499-b4fac8ab1b97",
        "%vlocity_namespace%__IsDisabled__c": false,
        "%vlocity_namespace%__IsRequiredForUpsert__c": false,
        "%vlocity_namespace%__LinkCreatedField__c": "Id",
        "%vlocity_namespace%__LinkCreatedIndex__c": 2,
        "%vlocity_namespace%__MapId__c": "UpdateContractDiscounts - OrderCustoma0Nf4000004AIk9EAGItem13",
        "%vlocity_namespace%__UpsertKey__c": false,
        "Name": "UpdateContractDiscounts - Order",
        "VlocityDataPackType": "SObject",
        "VlocityRecordSObjectType": "%vlocity_namespace%__DRMapItem__c"
    },
    {
        "%vlocity_namespace%__DomainObjectAPIName__c": "%vlocity_namespace%__ContractVersionDiscount__c",
        "%vlocity_namespace%__DomainObjectCreationOrder__c": 3,
        "%vlocity_namespace%__DomainObjectFieldAPIName__c": "%vlocity_namespace%__Description__c",
        "%vlocity_namespace%__GlobalKey__c": "8f71acd5-aec8-95e0-5def-d6e9efce6ed0",
        "%vlocity_namespace%__InterfaceFieldAPIName__c": "Order:FrameContract:Version:Discount:Description",
        "%vlocity_namespace%__IsDisabled__c": false,
        "%vlocity_namespace%__IsRequiredForUpsert__c": false,
        "%vlocity_namespace%__MapId__c": "UpdateContractDiscounts - OrderCustoma0Nf4000004AIk9EAGItem14",
        "%vlocity_namespace%__UpsertKey__c": false,
        "Name": "UpdateContractDiscounts - Order",
        "VlocityDataPackType": "SObject",
        "VlocityRecordSObjectType": "%vlocity_namespace%__DRMapItem__c"
    },
    {
        "%vlocity_namespace%__DomainObjectAPIName__c": "%vlocity_namespace%__ContractVersionDiscount__c",
        "%vlocity_namespace%__DomainObjectCreationOrder__c": 3,
        "%vlocity_namespace%__DomainObjectFieldAPIName__c": "%vlocity_namespace%__DiscountTemplateId__c",
        "%vlocity_namespace%__GlobalKey__c": "2c5b4dac-e2f9-1970-aaac-f1d0e13e4a28",
        "%vlocity_namespace%__InterfaceFieldAPIName__c": "Order:FrameContract:Version:Discount:TemplateId",
        "%vlocity_namespace%__IsDisabled__c": false,
        "%vlocity_namespace%__IsRequiredForUpsert__c": false,
        "%vlocity_namespace%__MapId__c": "UpdateContractDiscounts - OrderCustoma0Nf4000004AIk9EAGItem17",
        "%vlocity_namespace%__UpsertKey__c": false,
        "Name": "UpdateContractDiscounts - Order",
        "VlocityDataPackType": "SObject",
        "VlocityRecordSObjectType": "%vlocity_namespace%__DRMapItem__c"
    },
    {
        "%vlocity_namespace%__DomainObjectAPIName__c": "%vlocity_namespace%__ContractVersionDiscount__c",
        "%vlocity_namespace%__DomainObjectCreationOrder__c": 3,
        "%vlocity_namespace%__DomainObjectFieldAPIName__c": "%vlocity_namespace%__ReferenceNumber__c",
        "%vlocity_namespace%__GlobalKey__c": "8d44441b-9aa6-3da1-12e8-82d6be7934d4",
        "%vlocity_namespace%__InterfaceFieldAPIName__c": "Order:FrameContract:Version:Discount:ReferenceNumber",
        "%vlocity_namespace%__IsDisabled__c": false,
        "%vlocity_namespace%__IsRequiredForUpsert__c": true,
        "%vlocity_namespace%__MapId__c": "UpdateContractDiscounts - OrderCustoma0Nf4000004AIk9EAGItem16",
        "%vlocity_namespace%__UpsertKey__c": false,
        "Name": "UpdateContractDiscounts - Order",
        "VlocityDataPackType": "SObject",
        "VlocityRecordSObjectType": "%vlocity_namespace%__DRMapItem__c"
    },
    {
        "%vlocity_namespace%__ConfigurationValue__c": "FAKEMAPPING",
        "%vlocity_namespace%__DomainObjectAPIName__c": "%vlocity_namespace%__ContractVersionDiscount__c",
        "%vlocity_namespace%__DomainObjectCreationOrder__c": 3,
        "%vlocity_namespace%__DomainObjectFieldAPIName__c": "Id",
        "%vlocity_namespace%__FilterOperator__c": "=",
        "%vlocity_namespace%__GlobalKey__c": "a2bf5656-e619-79ab-0bd3-cdd079ef5772",
        "%vlocity_namespace%__IsDisabled__c": true,
        "%vlocity_namespace%__IsRequiredForUpsert__c": false,
        "%vlocity_namespace%__MapId__c": "UpdateContractDiscounts - OrderCustoma0Nf4000004AIk9EAGItem12",
        "%vlocity_namespace%__UpsertKey__c": false,
        "Name": "UpdateContractDiscounts - Order",
        "VlocityDataPackType": "SObject",
        "VlocityRecordSObjectType": "%vlocity_namespace%__DRMapItem__c"
    },
    {
        "%vlocity_namespace%__DomainObjectAPIName__c": "%vlocity_namespace%__ContractVersionDiscount__c",
        "%vlocity_namespace%__DomainObjectCreationOrder__c": 3,
        "%vlocity_namespace%__DomainObjectFieldAPIName__c": "Name",
        "%vlocity_namespace%__GlobalKey__c": "85e9c61e-2f20-8fae-7e1c-d8a5b0e0ec23",
        "%vlocity_namespace%__InterfaceFieldAPIName__c": "Order:FrameContract:Version:Discount:Name",
        "%vlocity_namespace%__IsDisabled__c": false,
        "%vlocity_namespace%__IsRequiredForUpsert__c": false,
        "%vlocity_namespace%__MapId__c": "UpdateContractDiscounts - OrderCustoma0Nf4000004AIk9EAGItem15",
        "%vlocity_namespace%__UpsertKey__c": false,
        "Name": "UpdateContractDiscounts - Order",
        "VlocityDataPackType": "SObject",
        "VlocityRecordSObjectType": "%vlocity_namespace%__DRMapItem__c"
    },
    {
        "%vlocity_namespace%__DomainObjectAPIName__c": "%vlocity_namespace%__ContractVersionDiscountItem__c",
        "%vlocity_namespace%__DomainObjectCreationOrder__c": 4,
        "%vlocity_namespace%__DomainObjectFieldAPIName__c": "%vlocity_namespace%__CatalogCategoryId__c",
        "%vlocity_namespace%__GlobalKey__c": "1324bcb9-e935-2b47-96e3-d321db7eb4a2",
        "%vlocity_namespace%__InterfaceFieldAPIName__c": "Order:FrameContract:Version:Discount:DiscountItem:CatalogCategoryId",
        "%vlocity_namespace%__IsDisabled__c": false,
        "%vlocity_namespace%__IsRequiredForUpsert__c": false,
        "%vlocity_namespace%__MapId__c": "UpdateContractDiscounts - OrderCustoma0Nf4000004AIk9EAGItem20",
        "%vlocity_namespace%__UpsertKey__c": false,
        "Name": "UpdateContractDiscounts - Order",
        "VlocityDataPackType": "SObject",
        "VlocityRecordSObjectType": "%vlocity_namespace%__DRMapItem__c"
    },
    {
        "%vlocity_namespace%__ConfigurationValue__c": "FAKEMAPPING",
        "%vlocity_namespace%__DomainObjectAPIName__c": "%vlocity_namespace%__ContractVersionDiscountItem__c",
        "%vlocity_namespace%__DomainObjectCreationOrder__c": 4,
        "%vlocity_namespace%__DomainObjectFieldAPIName__c": "%vlocity_namespace%__ContractVersionDiscountId__c",
        "%vlocity_namespace%__FilterOperator__c": "=",
        "%vlocity_namespace%__GlobalKey__c": "ed168259-78b8-d77b-bede-bde902a813fe",
        "%vlocity_namespace%__IsDisabled__c": false,
        "%vlocity_namespace%__IsRequiredForUpsert__c": false,
        "%vlocity_namespace%__LinkCreatedField__c": "Id",
        "%vlocity_namespace%__LinkCreatedIndex__c": 3,
        "%vlocity_namespace%__MapId__c": "UpdateContractDiscounts - OrderCustoma0Nf4000004AIk9EAGItem19",
        "%vlocity_namespace%__TransformValuesMap__c": "{\"\":\"\"}",
        "%vlocity_namespace%__UpsertKey__c": false,
        "Name": "UpdateContractDiscounts - Order",
        "VlocityDataPackType": "SObject",
        "VlocityRecordSObjectType": "%vlocity_namespace%__DRMapItem__c"
    },
    {
        "%vlocity_namespace%__DomainObjectAPIName__c": "%vlocity_namespace%__ContractVersionDiscountItem__c",
        "%vlocity_namespace%__DomainObjectCreationOrder__c": 4,
        "%vlocity_namespace%__DomainObjectFieldAPIName__c": "%vlocity_namespace%__Description__c",
        "%vlocity_namespace%__GlobalKey__c": "29e073be-4dbf-4e85-413e-c11ae1d2825a",
        "%vlocity_namespace%__InterfaceFieldAPIName__c": "Order:FrameContract:Version:Discount:DiscountItem:Description",
        "%vlocity_namespace%__IsDisabled__c": false,
        "%vlocity_namespace%__IsRequiredForUpsert__c": false,
        "%vlocity_namespace%__MapId__c": "UpdateContractDiscounts - OrderCustoma0Nf4000004AIk9EAGItem21",
        "%vlocity_namespace%__UpsertKey__c": false,
        "Name": "UpdateContractDiscounts - Order",
        "VlocityDataPackType": "SObject",
        "VlocityRecordSObjectType": "%vlocity_namespace%__DRMapItem__c"
    },
    {
        "%vlocity_namespace%__DomainObjectAPIName__c": "%vlocity_namespace%__ContractVersionDiscountItem__c",
        "%vlocity_namespace%__DomainObjectCreationOrder__c": 4,
        "%vlocity_namespace%__DomainObjectFieldAPIName__c": "%vlocity_namespace%__ProductId__c",
        "%vlocity_namespace%__GlobalKey__c": "6b6e001e-a1a2-3174-159b-4bcdcbdc50e4",
        "%vlocity_namespace%__InterfaceFieldAPIName__c": "Order:FrameContract:Version:Discount:DiscountItem:ProductId",
        "%vlocity_namespace%__IsDisabled__c": false,
        "%vlocity_namespace%__IsRequiredForUpsert__c": false,
        "%vlocity_namespace%__MapId__c": "UpdateContractDiscounts - OrderCustoma0Nf4000004AIk9EAGItem23",
        "%vlocity_namespace%__UpsertKey__c": false,
        "Name": "UpdateContractDiscounts - Order",
        "VlocityDataPackType": "SObject",
        "VlocityRecordSObjectType": "%vlocity_namespace%__DRMapItem__c"
    },
    {
        "%vlocity_namespace%__ConfigurationValue__c": "FAKEMAPPING",
        "%vlocity_namespace%__DomainObjectAPIName__c": "%vlocity_namespace%__ContractVersionDiscountItem__c",
        "%vlocity_namespace%__DomainObjectCreationOrder__c": 4,
        "%vlocity_namespace%__DomainObjectFieldAPIName__c": "Id",
        "%vlocity_namespace%__FilterOperator__c": "=",
        "%vlocity_namespace%__GlobalKey__c": "391ef7a3-b703-0b51-266d-d8050fc3bb49",
        "%vlocity_namespace%__IsDisabled__c": true,
        "%vlocity_namespace%__IsRequiredForUpsert__c": false,
        "%vlocity_namespace%__MapId__c": "UpdateContractDiscounts - OrderCustoma0Nf4000004AIk9EAGItem18",
        "%vlocity_namespace%__UpsertKey__c": false,
        "Name": "UpdateContractDiscounts - Order",
        "VlocityDataPackType": "SObject",
        "VlocityRecordSObjectType": "%vlocity_namespace%__DRMapItem__c"
    },
    {
        "%vlocity_namespace%__DomainObjectAPIName__c": "%vlocity_namespace%__ContractVersionDiscountItem__c",
        "%vlocity_namespace%__DomainObjectCreationOrder__c": 4,
        "%vlocity_namespace%__DomainObjectFieldAPIName__c": "Name",
        "%vlocity_namespace%__GlobalKey__c": "3b2ca8e6-526b-c0f4-61f2-bb92967fc1e6",
        "%vlocity_namespace%__InterfaceFieldAPIName__c": "Order:FrameContract:Version:Discount:DiscountItem:Name",
        "%vlocity_namespace%__IsDisabled__c": false,
        "%vlocity_namespace%__IsRequiredForUpsert__c": true,
        "%vlocity_namespace%__MapId__c": "UpdateContractDiscounts - OrderCustoma0Nf4000004AIk9EAGItem22",
        "%vlocity_namespace%__UpsertKey__c": false,
        "Name": "UpdateContractDiscounts - Order",
        "VlocityDataPackType": "SObject",
        "VlocityRecordSObjectType": "%vlocity_namespace%__DRMapItem__c"
    },
    {
        "%vlocity_namespace%__DomainObjectAPIName__c": "%vlocity_namespace%__ContractVersionDiscountPricing__c",
        "%vlocity_namespace%__DomainObjectCreationOrder__c": 5,
        "%vlocity_namespace%__DomainObjectFieldAPIName__c": "%vlocity_namespace%__AdjustmentValue__c",
        "%vlocity_namespace%__GlobalKey__c": "8718b91e-0d73-f798-a7d5-5ee04218f7b5",
        "%vlocity_namespace%__InterfaceFieldAPIName__c": "Order:FrameContract:Version:Discount:DiscountPricing:AdjustmentValue",
        "%vlocity_namespace%__IsDisabled__c": false,
        "%vlocity_namespace%__IsRequiredForUpsert__c": false,
        "%vlocity_namespace%__MapId__c": "UpdateContractDiscounts - OrderCustoma0Nf4000004AIk9EAGItem26",
        "%vlocity_namespace%__UpsertKey__c": false,
        "Name": "UpdateContractDiscounts - Order",
        "VlocityDataPackType": "SObject",
        "VlocityRecordSObjectType": "%vlocity_namespace%__DRMapItem__c"
    },
    {
        "%vlocity_namespace%__DomainObjectAPIName__c": "%vlocity_namespace%__ContractVersionDiscountPricing__c",
        "%vlocity_namespace%__DomainObjectCreationOrder__c": 5,
        "%vlocity_namespace%__DomainObjectFieldAPIName__c": "%vlocity_namespace%__Amount__c",
        "%vlocity_namespace%__GlobalKey__c": "bbdbf8fc-b6ee-264a-7d16-917620a38bfb",
        "%vlocity_namespace%__InterfaceFieldAPIName__c": "Order:FrameContract:Version:Discount:DiscountPricing:Amount",
        "%vlocity_namespace%__IsDisabled__c": false,
        "%vlocity_namespace%__IsRequiredForUpsert__c": false,
        "%vlocity_namespace%__MapId__c": "UpdateContractDiscounts - OrderCustoma0Nf4000004AIk9EAGItem27",
        "%vlocity_namespace%__UpsertKey__c": false,
        "Name": "UpdateContractDiscounts - Order",
        "VlocityDataPackType": "SObject",
        "VlocityRecordSObjectType": "%vlocity_namespace%__DRMapItem__c"
    },
    {
        "%vlocity_namespace%__ConfigurationValue__c": "FAKEMAPPING",
        "%vlocity_namespace%__DomainObjectAPIName__c": "%vlocity_namespace%__ContractVersionDiscountPricing__c",
        "%vlocity_namespace%__DomainObjectCreationOrder__c": 5,
        "%vlocity_namespace%__DomainObjectFieldAPIName__c": "%vlocity_namespace%__ContractVersionDiscountId__c",
        "%vlocity_namespace%__FilterOperator__c": "=",
        "%vlocity_namespace%__GlobalKey__c": "3adfcac9-db29-b928-4b7f-90a93e6ed147",
        "%vlocity_namespace%__IsDisabled__c": false,
        "%vlocity_namespace%__IsRequiredForUpsert__c": false,
        "%vlocity_namespace%__LinkCreatedField__c": "Id",
        "%vlocity_namespace%__LinkCreatedIndex__c": 3,
        "%vlocity_namespace%__MapId__c": "UpdateContractDiscounts - OrderCustoma0Nf4000004AIk9EAGItem25",
        "%vlocity_namespace%__UpsertKey__c": false,
        "Name": "UpdateContractDiscounts - Order",
        "VlocityDataPackType": "SObject",
        "VlocityRecordSObjectType": "%vlocity_namespace%__DRMapItem__c"
    },
    {
        "%vlocity_namespace%__DomainObjectAPIName__c": "%vlocity_namespace%__ContractVersionDiscountPricing__c",
        "%vlocity_namespace%__DomainObjectCreationOrder__c": 5,
        "%vlocity_namespace%__DomainObjectFieldAPIName__c": "%vlocity_namespace%__PricingVariableId__c",
        "%vlocity_namespace%__GlobalKey__c": "553d9e4e-f04d-89bc-1046-271ce39ea920",
        "%vlocity_namespace%__InterfaceFieldAPIName__c": "Order:FrameContract:Version:Discount:DiscountPricing:PricingVariableId",
        "%vlocity_namespace%__IsDisabled__c": false,
        "%vlocity_namespace%__IsRequiredForUpsert__c": false,
        "%vlocity_namespace%__MapId__c": "UpdateContractDiscounts - OrderCustoma0Nf4000004AIk9EAGItem29",
        "%vlocity_namespace%__UpsertKey__c": false,
        "Name": "UpdateContractDiscounts - Order",
        "VlocityDataPackType": "SObject",
        "VlocityRecordSObjectType": "%vlocity_namespace%__DRMapItem__c"
    },
    {
        "%vlocity_namespace%__DomainObjectAPIName__c": "%vlocity_namespace%__ContractVersionDiscountPricing__c",
        "%vlocity_namespace%__DomainObjectCreationOrder__c": 5,
        "%vlocity_namespace%__DomainObjectFieldAPIName__c": "%vlocity_namespace%__TimePlanId__c",
        "%vlocity_namespace%__GlobalKey__c": "4ce1e544-51e5-df5c-321f-651dd5ad2e0a",
        "%vlocity_namespace%__InterfaceFieldAPIName__c": "Order:FrameContract:Version:Discount:DiscountPricing:TimePlanId",
        "%vlocity_namespace%__IsDisabled__c": false,
        "%vlocity_namespace%__IsRequiredForUpsert__c": false,
        "%vlocity_namespace%__MapId__c": "UpdateContractDiscounts - OrderCustoma0Nf4000004AIk9EAGItem30",
        "%vlocity_namespace%__UpsertKey__c": false,
        "Name": "UpdateContractDiscounts - Order",
        "VlocityDataPackType": "SObject",
        "VlocityRecordSObjectType": "%vlocity_namespace%__DRMapItem__c"
    },
    {
        "%vlocity_namespace%__DomainObjectAPIName__c": "%vlocity_namespace%__ContractVersionDiscountPricing__c",
        "%vlocity_namespace%__DomainObjectCreationOrder__c": 5,
        "%vlocity_namespace%__DomainObjectFieldAPIName__c": "%vlocity_namespace%__TimePolicyId__c",
        "%vlocity_namespace%__GlobalKey__c": "09e53df5-08cd-40d0-17df-cc6d95d38a36",
        "%vlocity_namespace%__InterfaceFieldAPIName__c": "Order:FrameContract:Version:Discount:DiscountPricing:TimePolicyId",
        "%vlocity_namespace%__IsDisabled__c": false,
        "%vlocity_namespace%__IsRequiredForUpsert__c": false,
        "%vlocity_namespace%__MapId__c": "UpdateContractDiscounts - OrderCustoma0Nf4000004AIk9EAGItem31",
        "%vlocity_namespace%__UpsertKey__c": false,
        "Name": "UpdateContractDiscounts - Order",
        "VlocityDataPackType": "SObject",
        "VlocityRecordSObjectType": "%vlocity_namespace%__DRMapItem__c"
    },
    {
        "%vlocity_namespace%__ConfigurationValue__c": "FAKEMAPPING",
        "%vlocity_namespace%__DomainObjectAPIName__c": "%vlocity_namespace%__ContractVersionDiscountPricing__c",
        "%vlocity_namespace%__DomainObjectCreationOrder__c": 5,
        "%vlocity_namespace%__DomainObjectFieldAPIName__c": "Id",
        "%vlocity_namespace%__FilterOperator__c": "=",
        "%vlocity_namespace%__GlobalKey__c": "784629b0-c97b-0e93-c9c9-910cf40a9733",
        "%vlocity_namespace%__IsDisabled__c": true,
        "%vlocity_namespace%__IsRequiredForUpsert__c": false,
        "%vlocity_namespace%__MapId__c": "UpdateContractDiscounts - OrderCustoma0Nf4000004AIk9EAGItem24",
        "%vlocity_namespace%__UpsertKey__c": false,
        "Name": "UpdateContractDiscounts - Order",
        "VlocityDataPackType": "SObject",
        "VlocityRecordSObjectType": "%vlocity_namespace%__DRMapItem__c"
    },
    {
        "%vlocity_namespace%__DomainObjectAPIName__c": "%vlocity_namespace%__ContractVersionDiscountPricing__c",
        "%vlocity_namespace%__DomainObjectCreationOrder__c": 5,
        "%vlocity_namespace%__DomainObjectFieldAPIName__c": "Name",
        "%vlocity_namespace%__GlobalKey__c": "8d6ee3a7-debb-ea27-2ca5-8e19f780e5b0",
        "%vlocity_namespace%__InterfaceFieldAPIName__c": "Order:FrameContract:Version:Discount:DiscountPricing:Name",
        "%vlocity_namespace%__IsDisabled__c": false,
        "%vlocity_namespace%__IsRequiredForUpsert__c": true,
        "%vlocity_namespace%__MapId__c": "UpdateContractDiscounts - OrderCustoma0Nf4000004AIk9EAGItem28",
        "%vlocity_namespace%__UpsertKey__c": false,
        "Name": "UpdateContractDiscounts - Order",
        "VlocityDataPackType": "SObject",
        "VlocityRecordSObjectType": "%vlocity_namespace%__DRMapItem__c"
    }
]