[
    {
        "%vlocity_namespace%__DomainObjectAPIName__c": "json",
        "%vlocity_namespace%__DomainObjectCreationOrder__c": 0,
        "%vlocity_namespace%__DomainObjectFieldAPIName__c": "Quote",
        "%vlocity_namespace%__FilterGroup__c": 0,
        "%vlocity_namespace%__FilterOperator__c": "=",
        "%vlocity_namespace%__FilterValue__c": "Id",
        "%vlocity_namespace%__GlobalKey__c": "7ff77bf3-dc2d-803c-aa71-358f2a50c018",
        "%vlocity_namespace%__InterfaceFieldAPIName__c": "Id",
        "%vlocity_namespace%__InterfaceObjectLookupOrder__c": 1,
        "%vlocity_namespace%__InterfaceObjectName__c": "Quote",
        "%vlocity_namespace%__IsDisabled__c": false,
        "%vlocity_namespace%__IsRequiredForUpsert__c": false,
        "%vlocity_namespace%__MapId__c": "Quote ExtractCustom3777",
        "%vlocity_namespace%__UpsertKey__c": false,
        "Name": "Quote Discount Extract - Create",
        "VlocityDataPackType": "SObject",
        "VlocityRecordSObjectType": "%vlocity_namespace%__DRMapItem__c"
    },
    {
        "%vlocity_namespace%__DomainObjectAPIName__c": "json",
        "%vlocity_namespace%__DomainObjectCreationOrder__c": 0,
        "%vlocity_namespace%__DomainObjectFieldAPIName__c": "Quote:Discount",
        "%vlocity_namespace%__FilterGroup__c": 0,
        "%vlocity_namespace%__FilterOperator__c": "<>",
        "%vlocity_namespace%__FilterValue__c": "'Deactivate'",
        "%vlocity_namespace%__GlobalKey__c": "4c3a3b13-ecfe-8b8d-2ce6-778a51d5168e",
        "%vlocity_namespace%__InterfaceFieldAPIName__c": "%vlocity_namespace%__Action__c",
        "%vlocity_namespace%__InterfaceObjectLookupOrder__c": 2,
        "%vlocity_namespace%__InterfaceObjectName__c": "%vlocity_namespace%__QuoteDiscount__c",
        "%vlocity_namespace%__IsDisabled__c": false,
        "%vlocity_namespace%__IsRequiredForUpsert__c": false,
        "%vlocity_namespace%__MapId__c": "Quote Discount Extract - CreateCustom1795",
        "%vlocity_namespace%__UpsertKey__c": false,
        "Name": "Quote Discount Extract - Create",
        "VlocityDataPackType": "SObject",
        "VlocityRecordSObjectType": "%vlocity_namespace%__DRMapItem__c"
    },
    {
        "%vlocity_namespace%__DomainObjectAPIName__c": "json",
        "%vlocity_namespace%__DomainObjectCreationOrder__c": 0,
        "%vlocity_namespace%__DomainObjectFieldAPIName__c": "Quote:Discount",
        "%vlocity_namespace%__FilterGroup__c": 0,
        "%vlocity_namespace%__FilterOperator__c": "=",
        "%vlocity_namespace%__FilterValue__c": "'Approved'",
        "%vlocity_namespace%__GlobalKey__c": "d0ec3401-19b7-0665-2f5a-e0595cf5484d",
        "%vlocity_namespace%__InterfaceFieldAPIName__c": "%vlocity_namespace%__ApprovalStatus__c",
        "%vlocity_namespace%__InterfaceObjectLookupOrder__c": 2,
        "%vlocity_namespace%__InterfaceObjectName__c": "%vlocity_namespace%__QuoteDiscount__c",
        "%vlocity_namespace%__IsDisabled__c": false,
        "%vlocity_namespace%__IsRequiredForUpsert__c": false,
        "%vlocity_namespace%__MapId__c": "Quote Discount Extract - CreateCustom4637",
        "%vlocity_namespace%__UpsertKey__c": false,
        "Name": "Quote Discount Extract - Create",
        "VlocityDataPackType": "SObject",
        "VlocityRecordSObjectType": "%vlocity_namespace%__DRMapItem__c"
    },
    {
        "%vlocity_namespace%__DomainObjectAPIName__c": "json",
        "%vlocity_namespace%__DomainObjectCreationOrder__c": 0,
        "%vlocity_namespace%__DomainObjectFieldAPIName__c": "Quote:Discount",
        "%vlocity_namespace%__FilterGroup__c": 0,
        "%vlocity_namespace%__FilterOperator__c": "=",
        "%vlocity_namespace%__FilterValue__c": "'Contract'",
        "%vlocity_namespace%__GlobalKey__c": "b80cfbbe-928d-63be-aae4-4b364ba09813",
        "%vlocity_namespace%__InterfaceFieldAPIName__c": "%vlocity_namespace%__DiscountType__c",
        "%vlocity_namespace%__InterfaceObjectLookupOrder__c": 2,
        "%vlocity_namespace%__InterfaceObjectName__c": "%vlocity_namespace%__QuoteDiscount__c",
        "%vlocity_namespace%__IsDisabled__c": false,
        "%vlocity_namespace%__IsRequiredForUpsert__c": false,
        "%vlocity_namespace%__MapId__c": "Quote Discount Extract - CreateCustom8439",
        "%vlocity_namespace%__UpsertKey__c": false,
        "Name": "Quote Discount Extract - Create",
        "VlocityDataPackType": "SObject",
        "VlocityRecordSObjectType": "%vlocity_namespace%__DRMapItem__c"
    },
    {
        "%vlocity_namespace%__DomainObjectAPIName__c": "json",
        "%vlocity_namespace%__DomainObjectCreationOrder__c": 0,
        "%vlocity_namespace%__DomainObjectFieldAPIName__c": "Quote:Discount",
        "%vlocity_namespace%__FilterGroup__c": 0,
        "%vlocity_namespace%__FilterOperator__c": "=",
        "%vlocity_namespace%__FilterValue__c": "Id",
        "%vlocity_namespace%__GlobalKey__c": "e9ac91c2-89a8-138e-f1d4-e75a7bb36f3d",
        "%vlocity_namespace%__InterfaceFieldAPIName__c": "%vlocity_namespace%__QuoteId__c",
        "%vlocity_namespace%__InterfaceObjectLookupOrder__c": 2,
        "%vlocity_namespace%__InterfaceObjectName__c": "%vlocity_namespace%__QuoteDiscount__c",
        "%vlocity_namespace%__IsDisabled__c": false,
        "%vlocity_namespace%__IsRequiredForUpsert__c": false,
        "%vlocity_namespace%__MapId__c": "Quote ExtractCustom5019",
        "%vlocity_namespace%__UpsertKey__c": false,
        "Name": "Quote Discount Extract - Create",
        "VlocityDataPackType": "SObject",
        "VlocityRecordSObjectType": "%vlocity_namespace%__DRMapItem__c"
    },
    {
        "%vlocity_namespace%__DomainObjectAPIName__c": "json",
        "%vlocity_namespace%__DomainObjectCreationOrder__c": 0,
        "%vlocity_namespace%__DomainObjectFieldAPIName__c": "Quote:Discount:DiscountItem",
        "%vlocity_namespace%__FilterGroup__c": 0,
        "%vlocity_namespace%__FilterOperator__c": "=",
        "%vlocity_namespace%__FilterValue__c": "Quote:Discount:Id",
        "%vlocity_namespace%__GlobalKey__c": "cb1687cb-6ae2-a3f7-c0ff-1351edb46476",
        "%vlocity_namespace%__InterfaceFieldAPIName__c": "%vlocity_namespace%__QuoteDiscountId__c",
        "%vlocity_namespace%__InterfaceObjectLookupOrder__c": 3,
        "%vlocity_namespace%__InterfaceObjectName__c": "%vlocity_namespace%__QuoteDiscountItem__c",
        "%vlocity_namespace%__IsDisabled__c": false,
        "%vlocity_namespace%__IsRequiredForUpsert__c": false,
        "%vlocity_namespace%__MapId__c": "Quote ExtractCustom1444",
        "%vlocity_namespace%__UpsertKey__c": false,
        "Name": "Quote Discount Extract - Create",
        "VlocityDataPackType": "SObject",
        "VlocityRecordSObjectType": "%vlocity_namespace%__DRMapItem__c"
    },
    {
        "%vlocity_namespace%__DomainObjectAPIName__c": "json",
        "%vlocity_namespace%__DomainObjectCreationOrder__c": 0,
        "%vlocity_namespace%__DomainObjectFieldAPIName__c": "Quote:Discount:DiscountPricing",
        "%vlocity_namespace%__FilterGroup__c": 0,
        "%vlocity_namespace%__FilterOperator__c": "=",
        "%vlocity_namespace%__FilterValue__c": "Quote:Discount:Id",
        "%vlocity_namespace%__GlobalKey__c": "e844f589-7acc-878e-c78c-42391ad5efd0",
        "%vlocity_namespace%__InterfaceFieldAPIName__c": "%vlocity_namespace%__QuoteDiscountId__c",
        "%vlocity_namespace%__InterfaceObjectLookupOrder__c": 4,
        "%vlocity_namespace%__InterfaceObjectName__c": "%vlocity_namespace%__QuoteDiscountPricing__c",
        "%vlocity_namespace%__IsDisabled__c": false,
        "%vlocity_namespace%__IsRequiredForUpsert__c": false,
        "%vlocity_namespace%__MapId__c": "Quote ExtractCustom5344",
        "%vlocity_namespace%__UpsertKey__c": false,
        "Name": "Quote Discount Extract - Create",
        "VlocityDataPackType": "SObject",
        "VlocityRecordSObjectType": "%vlocity_namespace%__DRMapItem__c"
    },
    {
        "%vlocity_namespace%__DomainObjectAPIName__c": "json",
        "%vlocity_namespace%__DomainObjectCreationOrder__c": 0,
        "%vlocity_namespace%__DomainObjectFieldAPIName__c": "Quote:DeactivatedDiscounts",
        "%vlocity_namespace%__FilterGroup__c": 0,
        "%vlocity_namespace%__FilterOperator__c": "=",
        "%vlocity_namespace%__FilterValue__c": "'Deactivate'",
        "%vlocity_namespace%__GlobalKey__c": "87131659-5744-c30e-96ab-d50bfe1d617b",
        "%vlocity_namespace%__InterfaceFieldAPIName__c": "%vlocity_namespace%__Action__c",
        "%vlocity_namespace%__InterfaceObjectLookupOrder__c": 5,
        "%vlocity_namespace%__InterfaceObjectName__c": "%vlocity_namespace%__QuoteDiscount__c",
        "%vlocity_namespace%__IsDisabled__c": false,
        "%vlocity_namespace%__IsRequiredForUpsert__c": false,
        "%vlocity_namespace%__MapId__c": "Quote Discount Extract - CreateCustom9644",
        "%vlocity_namespace%__UpsertKey__c": false,
        "Name": "Quote Discount Extract - Create",
        "VlocityDataPackType": "SObject",
        "VlocityRecordSObjectType": "%vlocity_namespace%__DRMapItem__c"
    },
    {
        "%vlocity_namespace%__DomainObjectAPIName__c": "json",
        "%vlocity_namespace%__DomainObjectCreationOrder__c": 0,
        "%vlocity_namespace%__DomainObjectFieldAPIName__c": "Quote:DeactivatedDiscounts",
        "%vlocity_namespace%__FilterGroup__c": 0,
        "%vlocity_namespace%__FilterOperator__c": "=",
        "%vlocity_namespace%__FilterValue__c": "'Approved'",
        "%vlocity_namespace%__GlobalKey__c": "a85877d0-f110-763d-447e-23cf66fe4a6c",
        "%vlocity_namespace%__InterfaceFieldAPIName__c": "%vlocity_namespace%__ApprovalStatus__c",
        "%vlocity_namespace%__InterfaceObjectLookupOrder__c": 5,
        "%vlocity_namespace%__InterfaceObjectName__c": "%vlocity_namespace%__QuoteDiscount__c",
        "%vlocity_namespace%__IsDisabled__c": false,
        "%vlocity_namespace%__IsRequiredForUpsert__c": false,
        "%vlocity_namespace%__MapId__c": "Quote Discount Extract - CreateCustom4808",
        "%vlocity_namespace%__UpsertKey__c": false,
        "Name": "Quote Discount Extract - Create",
        "VlocityDataPackType": "SObject",
        "VlocityRecordSObjectType": "%vlocity_namespace%__DRMapItem__c"
    },
    {
        "%vlocity_namespace%__DomainObjectAPIName__c": "json",
        "%vlocity_namespace%__DomainObjectCreationOrder__c": 0,
        "%vlocity_namespace%__DomainObjectFieldAPIName__c": "Quote:DeactivatedDiscounts",
        "%vlocity_namespace%__FilterGroup__c": 0,
        "%vlocity_namespace%__FilterOperator__c": "=",
        "%vlocity_namespace%__FilterValue__c": "'Contract'",
        "%vlocity_namespace%__GlobalKey__c": "399bca59-9d1c-fab6-aca8-71875dca90fe",
        "%vlocity_namespace%__InterfaceFieldAPIName__c": "%vlocity_namespace%__DiscountType__c",
        "%vlocity_namespace%__InterfaceObjectLookupOrder__c": 5,
        "%vlocity_namespace%__InterfaceObjectName__c": "%vlocity_namespace%__QuoteDiscount__c",
        "%vlocity_namespace%__IsDisabled__c": false,
        "%vlocity_namespace%__IsRequiredForUpsert__c": false,
        "%vlocity_namespace%__MapId__c": "Quote Discount Extract - CreateCustom399",
        "%vlocity_namespace%__UpsertKey__c": false,
        "Name": "Quote Discount Extract - Create",
        "VlocityDataPackType": "SObject",
        "VlocityRecordSObjectType": "%vlocity_namespace%__DRMapItem__c"
    },
    {
        "%vlocity_namespace%__DomainObjectAPIName__c": "json",
        "%vlocity_namespace%__DomainObjectCreationOrder__c": 0,
        "%vlocity_namespace%__DomainObjectFieldAPIName__c": "Quote:DeactivatedDiscounts",
        "%vlocity_namespace%__FilterGroup__c": 0,
        "%vlocity_namespace%__FilterOperator__c": "=",
        "%vlocity_namespace%__FilterValue__c": "''",
        "%vlocity_namespace%__GlobalKey__c": "d40c83f6-e5fe-38ba-4e49-9ced2666288d",
        "%vlocity_namespace%__InterfaceFieldAPIName__c": "%vlocity_namespace%__EffectiveEndDate__c",
        "%vlocity_namespace%__InterfaceObjectLookupOrder__c": 5,
        "%vlocity_namespace%__InterfaceObjectName__c": "%vlocity_namespace%__QuoteDiscount__c",
        "%vlocity_namespace%__IsDisabled__c": false,
        "%vlocity_namespace%__IsRequiredForUpsert__c": false,
        "%vlocity_namespace%__MapId__c": "Quote Discount Extract - CreateCustom3638",
        "%vlocity_namespace%__UpsertKey__c": false,
        "Name": "Quote Discount Extract - Create",
        "VlocityDataPackType": "SObject",
        "VlocityRecordSObjectType": "%vlocity_namespace%__DRMapItem__c"
    },
    {
        "%vlocity_namespace%__DomainObjectAPIName__c": "json",
        "%vlocity_namespace%__DomainObjectCreationOrder__c": 0,
        "%vlocity_namespace%__DomainObjectFieldAPIName__c": "Quote:DeactivatedDiscounts",
        "%vlocity_namespace%__FilterGroup__c": 0,
        "%vlocity_namespace%__FilterOperator__c": "=",
        "%vlocity_namespace%__FilterValue__c": "Id",
        "%vlocity_namespace%__GlobalKey__c": "58ffaf68-e8e0-aa2c-2571-a0ec5f8cbb62",
        "%vlocity_namespace%__InterfaceFieldAPIName__c": "%vlocity_namespace%__QuoteId__c",
        "%vlocity_namespace%__InterfaceObjectLookupOrder__c": 5,
        "%vlocity_namespace%__InterfaceObjectName__c": "%vlocity_namespace%__QuoteDiscount__c",
        "%vlocity_namespace%__IsDisabled__c": false,
        "%vlocity_namespace%__IsRequiredForUpsert__c": false,
        "%vlocity_namespace%__MapId__c": "Quote Discount Extract - CreateCustom2646",
        "%vlocity_namespace%__UpsertKey__c": false,
        "Name": "Quote Discount Extract - Create",
        "VlocityDataPackType": "SObject",
        "VlocityRecordSObjectType": "%vlocity_namespace%__DRMapItem__c"
    },
    {
        "%vlocity_namespace%__DomainObjectAPIName__c": "json",
        "%vlocity_namespace%__DomainObjectCreationOrder__c": 1,
        "%vlocity_namespace%__DomainObjectFieldAPIName__c": "Quote:AccountId",
        "%vlocity_namespace%__GlobalKey__c": "df1562f4-745a-7b02-9b9f-54bd8284f963",
        "%vlocity_namespace%__InterfaceFieldAPIName__c": "Quote:AccountId",
        "%vlocity_namespace%__IsDisabled__c": false,
        "%vlocity_namespace%__IsRequiredForUpsert__c": false,
        "%vlocity_namespace%__MapId__c": "Quote ExtractCustom4321",
        "%vlocity_namespace%__UpsertKey__c": false,
        "Name": "Quote Discount Extract - Create",
        "VlocityDataPackType": "SObject",
        "VlocityRecordSObjectType": "%vlocity_namespace%__DRMapItem__c"
    },
    {
        "%vlocity_namespace%__DomainObjectAPIName__c": "json",
        "%vlocity_namespace%__DomainObjectCreationOrder__c": 1,
        "%vlocity_namespace%__DomainObjectFieldAPIName__c": "Quote:DeactivatedDiscounts:EffectiveEndDate",
        "%vlocity_namespace%__GlobalKey__c": "2300018b-3903-5ef2-d18f-1554e00dbb59",
        "%vlocity_namespace%__InterfaceFieldAPIName__c": "Quote:DeactivatedDiscounts:%vlocity_namespace%__EffectiveEndDate__c",
        "%vlocity_namespace%__IsDisabled__c": false,
        "%vlocity_namespace%__IsRequiredForUpsert__c": false,
        "%vlocity_namespace%__MapId__c": "Quote Discount Extract - CreateCustom7861",
        "%vlocity_namespace%__UpsertKey__c": false,
        "Name": "Quote Discount Extract - Create",
        "VlocityDataPackType": "SObject",
        "VlocityRecordSObjectType": "%vlocity_namespace%__DRMapItem__c"
    },
    {
        "%vlocity_namespace%__DomainObjectAPIName__c": "json",
        "%vlocity_namespace%__DomainObjectCreationOrder__c": 1,
        "%vlocity_namespace%__DomainObjectFieldAPIName__c": "Quote:DeactivatedDiscounts:Id",
        "%vlocity_namespace%__GlobalKey__c": "608069cf-760a-e7e8-323d-6a85f43a183b",
        "%vlocity_namespace%__InterfaceFieldAPIName__c": "Quote:DeactivatedDiscounts:Id",
        "%vlocity_namespace%__IsDisabled__c": false,
        "%vlocity_namespace%__IsRequiredForUpsert__c": false,
        "%vlocity_namespace%__MapId__c": "Quote Discount Extract - CreateCustom6135",
        "%vlocity_namespace%__UpsertKey__c": false,
        "Name": "Quote Discount Extract - Create",
        "VlocityDataPackType": "SObject",
        "VlocityRecordSObjectType": "%vlocity_namespace%__DRMapItem__c"
    },
    {
        "%vlocity_namespace%__DomainObjectAPIName__c": "json",
        "%vlocity_namespace%__DomainObjectCreationOrder__c": 1,
        "%vlocity_namespace%__DomainObjectFieldAPIName__c": "Quote:Discount:AppliesToAllItems",
        "%vlocity_namespace%__GlobalKey__c": "71e03443-4130-ab84-1fba-42dee7b71145",
        "%vlocity_namespace%__InterfaceFieldAPIName__c": "Quote:Discount:%vlocity_namespace%__AppliesToAllItems__c",
        "%vlocity_namespace%__IsDisabled__c": false,
        "%vlocity_namespace%__IsRequiredForUpsert__c": false,
        "%vlocity_namespace%__MapId__c": "Quote Discount Extract - CreateCustom8226",
        "%vlocity_namespace%__UpsertKey__c": false,
        "Name": "Quote Discount Extract - Create",
        "VlocityDataPackType": "SObject",
        "VlocityRecordSObjectType": "%vlocity_namespace%__DRMapItem__c"
    },
    {
        "%vlocity_namespace%__DomainObjectAPIName__c": "json",
        "%vlocity_namespace%__DomainObjectCreationOrder__c": 1,
        "%vlocity_namespace%__DomainObjectFieldAPIName__c": "Quote:Discount:Description",
        "%vlocity_namespace%__GlobalKey__c": "4b0cee13-1a1c-7228-9ff3-d233dc5fc456",
        "%vlocity_namespace%__InterfaceFieldAPIName__c": "Quote:Discount:%vlocity_namespace%__Description__c",
        "%vlocity_namespace%__IsDisabled__c": false,
        "%vlocity_namespace%__IsRequiredForUpsert__c": false,
        "%vlocity_namespace%__MapId__c": "Quote ExtractCustom7114",
        "%vlocity_namespace%__UpsertKey__c": false,
        "Name": "Quote Discount Extract - Create",
        "VlocityDataPackType": "SObject",
        "VlocityRecordSObjectType": "%vlocity_namespace%__DRMapItem__c"
    },
    {
        "%vlocity_namespace%__DomainObjectAPIName__c": "json",
        "%vlocity_namespace%__DomainObjectCreationOrder__c": 1,
        "%vlocity_namespace%__DomainObjectFieldAPIName__c": "Quote:Discount:DiscountItem:CatalogCategoryId",
        "%vlocity_namespace%__GlobalKey__c": "9d1d78d8-5851-6bb5-f677-56ed31199e13",
        "%vlocity_namespace%__InterfaceFieldAPIName__c": "Quote:Discount:DiscountItem:%vlocity_namespace%__CatalogCategoryId__c",
        "%vlocity_namespace%__IsDisabled__c": false,
        "%vlocity_namespace%__IsRequiredForUpsert__c": false,
        "%vlocity_namespace%__MapId__c": "Quote ExtractCustom6135",
        "%vlocity_namespace%__UpsertKey__c": false,
        "Name": "Quote Discount Extract - Create",
        "VlocityDataPackType": "SObject",
        "VlocityRecordSObjectType": "%vlocity_namespace%__DRMapItem__c"
    },
    {
        "%vlocity_namespace%__DomainObjectAPIName__c": "json",
        "%vlocity_namespace%__DomainObjectCreationOrder__c": 1,
        "%vlocity_namespace%__DomainObjectFieldAPIName__c": "Quote:Discount:DiscountItem:Description",
        "%vlocity_namespace%__GlobalKey__c": "8243d28d-c4ea-5612-04fb-071fae109235",
        "%vlocity_namespace%__InterfaceFieldAPIName__c": "Quote:Discount:DiscountItem:%vlocity_namespace%__Description__c",
        "%vlocity_namespace%__IsDisabled__c": false,
        "%vlocity_namespace%__IsRequiredForUpsert__c": false,
        "%vlocity_namespace%__MapId__c": "Quote ExtractCustom2404",
        "%vlocity_namespace%__UpsertKey__c": false,
        "Name": "Quote Discount Extract - Create",
        "VlocityDataPackType": "SObject",
        "VlocityRecordSObjectType": "%vlocity_namespace%__DRMapItem__c"
    },
    {
        "%vlocity_namespace%__DomainObjectAPIName__c": "json",
        "%vlocity_namespace%__DomainObjectCreationOrder__c": 1,
        "%vlocity_namespace%__DomainObjectFieldAPIName__c": "Quote:Discount:DiscountItem:Name",
        "%vlocity_namespace%__GlobalKey__c": "fcb0aa68-f122-6dd6-aa32-9b26d316a063",
        "%vlocity_namespace%__InterfaceFieldAPIName__c": "Quote:Discount:DiscountItem:Name",
        "%vlocity_namespace%__IsDisabled__c": false,
        "%vlocity_namespace%__IsRequiredForUpsert__c": false,
        "%vlocity_namespace%__MapId__c": "Quote ExtractCustom9555",
        "%vlocity_namespace%__UpsertKey__c": false,
        "Name": "Quote Discount Extract - Create",
        "VlocityDataPackType": "SObject",
        "VlocityRecordSObjectType": "%vlocity_namespace%__DRMapItem__c"
    },
    {
        "%vlocity_namespace%__DomainObjectAPIName__c": "json",
        "%vlocity_namespace%__DomainObjectCreationOrder__c": 1,
        "%vlocity_namespace%__DomainObjectFieldAPIName__c": "Quote:Discount:DiscountItem:ProductId",
        "%vlocity_namespace%__GlobalKey__c": "ddd41ee5-14a2-6dcf-8f01-5e49e973fad9",
        "%vlocity_namespace%__InterfaceFieldAPIName__c": "Quote:Discount:DiscountItem:%vlocity_namespace%__ProductId__c",
        "%vlocity_namespace%__IsDisabled__c": false,
        "%vlocity_namespace%__IsRequiredForUpsert__c": false,
        "%vlocity_namespace%__MapId__c": "Quote ExtractCustom5538",
        "%vlocity_namespace%__UpsertKey__c": false,
        "Name": "Quote Discount Extract - Create",
        "VlocityDataPackType": "SObject",
        "VlocityRecordSObjectType": "%vlocity_namespace%__DRMapItem__c"
    },
    {
        "%vlocity_namespace%__DomainObjectAPIName__c": "json",
        "%vlocity_namespace%__DomainObjectCreationOrder__c": 1,
        "%vlocity_namespace%__DomainObjectFieldAPIName__c": "Quote:Discount:DiscountPricing:AdjustmentValue",
        "%vlocity_namespace%__GlobalKey__c": "ba7f9506-6897-4760-58c4-91a8e54e0b4b",
        "%vlocity_namespace%__InterfaceFieldAPIName__c": "Quote:Discount:DiscountPricing:%vlocity_namespace%__AdjustmentValue__c",
        "%vlocity_namespace%__IsDisabled__c": false,
        "%vlocity_namespace%__IsRequiredForUpsert__c": false,
        "%vlocity_namespace%__MapId__c": "Quote ExtractCustom9031",
        "%vlocity_namespace%__UpsertKey__c": false,
        "Name": "Quote Discount Extract - Create",
        "VlocityDataPackType": "SObject",
        "VlocityRecordSObjectType": "%vlocity_namespace%__DRMapItem__c"
    },
    {
        "%vlocity_namespace%__DomainObjectAPIName__c": "json",
        "%vlocity_namespace%__DomainObjectCreationOrder__c": 1,
        "%vlocity_namespace%__DomainObjectFieldAPIName__c": "Quote:Discount:DiscountPricing:Amount",
        "%vlocity_namespace%__GlobalKey__c": "fbe255a6-79bb-3d24-8b25-246a70ffd847",
        "%vlocity_namespace%__InterfaceFieldAPIName__c": "Quote:Discount:DiscountPricing:%vlocity_namespace%__Amount__c",
        "%vlocity_namespace%__IsDisabled__c": false,
        "%vlocity_namespace%__IsRequiredForUpsert__c": false,
        "%vlocity_namespace%__MapId__c": "Quote ExtractCustom393",
        "%vlocity_namespace%__UpsertKey__c": false,
        "Name": "Quote Discount Extract - Create",
        "VlocityDataPackType": "SObject",
        "VlocityRecordSObjectType": "%vlocity_namespace%__DRMapItem__c"
    },
    {
        "%vlocity_namespace%__DomainObjectAPIName__c": "json",
        "%vlocity_namespace%__DomainObjectCreationOrder__c": 1,
        "%vlocity_namespace%__DomainObjectFieldAPIName__c": "Quote:Discount:DiscountPricing:Name",
        "%vlocity_namespace%__GlobalKey__c": "4f34f0db-335a-aa26-ddcc-ab74d0c760e3",
        "%vlocity_namespace%__InterfaceFieldAPIName__c": "Quote:Discount:DiscountPricing:Name",
        "%vlocity_namespace%__IsDisabled__c": false,
        "%vlocity_namespace%__IsRequiredForUpsert__c": false,
        "%vlocity_namespace%__MapId__c": "Quote ExtractCustom4097",
        "%vlocity_namespace%__UpsertKey__c": false,
        "Name": "Quote Discount Extract - Create",
        "VlocityDataPackType": "SObject",
        "VlocityRecordSObjectType": "%vlocity_namespace%__DRMapItem__c"
    },
    {
        "%vlocity_namespace%__DomainObjectAPIName__c": "json",
        "%vlocity_namespace%__DomainObjectCreationOrder__c": 1,
        "%vlocity_namespace%__DomainObjectFieldAPIName__c": "Quote:Discount:DiscountPricing:PricingVariableId",
        "%vlocity_namespace%__GlobalKey__c": "e341d8ee-26d3-eac9-aa14-92721ed0de1e",
        "%vlocity_namespace%__InterfaceFieldAPIName__c": "Quote:Discount:DiscountPricing:%vlocity_namespace%__PricingVariableId__c",
        "%vlocity_namespace%__IsDisabled__c": false,
        "%vlocity_namespace%__IsRequiredForUpsert__c": false,
        "%vlocity_namespace%__MapId__c": "Quote ExtractCustom2269",
        "%vlocity_namespace%__UpsertKey__c": false,
        "Name": "Quote Discount Extract - Create",
        "VlocityDataPackType": "SObject",
        "VlocityRecordSObjectType": "%vlocity_namespace%__DRMapItem__c"
    },
    {
        "%vlocity_namespace%__DomainObjectAPIName__c": "json",
        "%vlocity_namespace%__DomainObjectCreationOrder__c": 1,
        "%vlocity_namespace%__DomainObjectFieldAPIName__c": "Quote:Discount:DiscountPricing:TimePlanId",
        "%vlocity_namespace%__GlobalKey__c": "c80b3a5e-df7a-7a3f-378b-34edfbf82c18",
        "%vlocity_namespace%__InterfaceFieldAPIName__c": "Quote:Discount:DiscountPricing:%vlocity_namespace%__TimePlanId__c",
        "%vlocity_namespace%__IsDisabled__c": false,
        "%vlocity_namespace%__IsRequiredForUpsert__c": false,
        "%vlocity_namespace%__MapId__c": "Quote ExtractCustom6637",
        "%vlocity_namespace%__UpsertKey__c": false,
        "Name": "Quote Discount Extract - Create",
        "VlocityDataPackType": "SObject",
        "VlocityRecordSObjectType": "%vlocity_namespace%__DRMapItem__c"
    },
    {
        "%vlocity_namespace%__DomainObjectAPIName__c": "json",
        "%vlocity_namespace%__DomainObjectCreationOrder__c": 1,
        "%vlocity_namespace%__DomainObjectFieldAPIName__c": "Quote:Discount:DiscountPricing:TimePolicyId",
        "%vlocity_namespace%__GlobalKey__c": "b4fc799d-add7-4bc5-5c39-f8bcfc8fb8ba",
        "%vlocity_namespace%__InterfaceFieldAPIName__c": "Quote:Discount:DiscountPricing:%vlocity_namespace%__TimePolicyId__c",
        "%vlocity_namespace%__IsDisabled__c": false,
        "%vlocity_namespace%__IsRequiredForUpsert__c": false,
        "%vlocity_namespace%__MapId__c": "Quote ExtractCustom1828",
        "%vlocity_namespace%__UpsertKey__c": false,
        "Name": "Quote Discount Extract - Create",
        "VlocityDataPackType": "SObject",
        "VlocityRecordSObjectType": "%vlocity_namespace%__DRMapItem__c"
    },
    {
        "%vlocity_namespace%__DomainObjectAPIName__c": "json",
        "%vlocity_namespace%__DomainObjectCreationOrder__c": 1,
        "%vlocity_namespace%__DomainObjectFieldAPIName__c": "Quote:Discount:EffectiveEndDate",
        "%vlocity_namespace%__GlobalKey__c": "862bdc1c-a2bc-3156-a9f6-ca4f4e645681",
        "%vlocity_namespace%__InterfaceFieldAPIName__c": "Quote:Discount:%vlocity_namespace%__EffectiveEndDate__c",
        "%vlocity_namespace%__IsDisabled__c": false,
        "%vlocity_namespace%__IsRequiredForUpsert__c": false,
        "%vlocity_namespace%__MapId__c": "Quote ExtractCustom2132",
        "%vlocity_namespace%__UpsertKey__c": false,
        "Name": "Quote Discount Extract - Create",
        "VlocityDataPackType": "SObject",
        "VlocityRecordSObjectType": "%vlocity_namespace%__DRMapItem__c"
    },
    {
        "%vlocity_namespace%__DomainObjectAPIName__c": "json",
        "%vlocity_namespace%__DomainObjectCreationOrder__c": 1,
        "%vlocity_namespace%__DomainObjectFieldAPIName__c": "Quote:Discount:EffectiveStartDate",
        "%vlocity_namespace%__GlobalKey__c": "8f3eb31b-0b9b-beec-bfa1-1092c5aa470d",
        "%vlocity_namespace%__InterfaceFieldAPIName__c": "Quote:Discount:%vlocity_namespace%__EffectiveStartDate__c",
        "%vlocity_namespace%__IsDisabled__c": false,
        "%vlocity_namespace%__IsRequiredForUpsert__c": false,
        "%vlocity_namespace%__MapId__c": "Quote ExtractCustom658",
        "%vlocity_namespace%__UpsertKey__c": false,
        "Name": "Quote Discount Extract - Create",
        "VlocityDataPackType": "SObject",
        "VlocityRecordSObjectType": "%vlocity_namespace%__DRMapItem__c"
    },
    {
        "%vlocity_namespace%__DomainObjectAPIName__c": "json",
        "%vlocity_namespace%__DomainObjectCreationOrder__c": 1,
        "%vlocity_namespace%__DomainObjectFieldAPIName__c": "Quote:Discount:Name",
        "%vlocity_namespace%__GlobalKey__c": "525d274c-3c39-ccbb-024b-50d0efc2e7d4",
        "%vlocity_namespace%__InterfaceFieldAPIName__c": "Quote:Discount:Name",
        "%vlocity_namespace%__IsDisabled__c": false,
        "%vlocity_namespace%__IsRequiredForUpsert__c": false,
        "%vlocity_namespace%__MapId__c": "Quote ExtractCustom4040",
        "%vlocity_namespace%__UpsertKey__c": false,
        "Name": "Quote Discount Extract - Create",
        "VlocityDataPackType": "SObject",
        "VlocityRecordSObjectType": "%vlocity_namespace%__DRMapItem__c"
    },
    {
        "%vlocity_namespace%__DomainObjectAPIName__c": "json",
        "%vlocity_namespace%__DomainObjectCreationOrder__c": 1,
        "%vlocity_namespace%__DomainObjectFieldAPIName__c": "Quote:Discount:ReferenceNumber",
        "%vlocity_namespace%__GlobalKey__c": "462ae760-e93e-11a9-dc7a-41fbe8e04fcd",
        "%vlocity_namespace%__InterfaceFieldAPIName__c": "Quote:Discount:%vlocity_namespace%__ReferenceNumber__c",
        "%vlocity_namespace%__IsDisabled__c": false,
        "%vlocity_namespace%__IsRequiredForUpsert__c": false,
        "%vlocity_namespace%__MapId__c": "Quote ExtractCustom8937",
        "%vlocity_namespace%__UpsertKey__c": false,
        "Name": "Quote Discount Extract - Create",
        "VlocityDataPackType": "SObject",
        "VlocityRecordSObjectType": "%vlocity_namespace%__DRMapItem__c"
    },
    {
        "%vlocity_namespace%__DomainObjectAPIName__c": "json",
        "%vlocity_namespace%__DomainObjectCreationOrder__c": 1,
        "%vlocity_namespace%__DomainObjectFieldAPIName__c": "Quote:Discount:TemplateId",
        "%vlocity_namespace%__GlobalKey__c": "87503493-17f8-8bc2-cf79-fc1968ff57aa",
        "%vlocity_namespace%__InterfaceFieldAPIName__c": "Quote:Discount:%vlocity_namespace%__DiscountTemplateId__c",
        "%vlocity_namespace%__IsDisabled__c": false,
        "%vlocity_namespace%__IsRequiredForUpsert__c": false,
        "%vlocity_namespace%__MapId__c": "Quote ExtractCustom2231",
        "%vlocity_namespace%__UpsertKey__c": false,
        "Name": "Quote Discount Extract - Create",
        "VlocityDataPackType": "SObject",
        "VlocityRecordSObjectType": "%vlocity_namespace%__DRMapItem__c"
    },
    {
        "%vlocity_namespace%__DomainObjectAPIName__c": "json",
        "%vlocity_namespace%__DomainObjectCreationOrder__c": 1,
        "%vlocity_namespace%__DomainObjectFieldAPIName__c": "Quote:Name",
        "%vlocity_namespace%__GlobalKey__c": "5890dc5f-dc6c-aaef-ed28-98bab0e1e754",
        "%vlocity_namespace%__InterfaceFieldAPIName__c": "Quote:Name",
        "%vlocity_namespace%__IsDisabled__c": false,
        "%vlocity_namespace%__IsRequiredForUpsert__c": false,
        "%vlocity_namespace%__MapId__c": "Quote ExtractCustom9912",
        "%vlocity_namespace%__UpsertKey__c": false,
        "Name": "Quote Discount Extract - Create",
        "VlocityDataPackType": "SObject",
        "VlocityRecordSObjectType": "%vlocity_namespace%__DRMapItem__c"
    },
    {
        "%vlocity_namespace%__DomainObjectAPIName__c": "json",
        "%vlocity_namespace%__DomainObjectCreationOrder__c": 1,
        "%vlocity_namespace%__DomainObjectFieldAPIName__c": "Quote:originalContractId",
        "%vlocity_namespace%__GlobalKey__c": "f98723b2-f221-2626-9cc2-cab8a3e1b38d",
        "%vlocity_namespace%__InterfaceFieldAPIName__c": "Quote:%vlocity_namespace%__RenewalSourceContractId__c",
        "%vlocity_namespace%__IsDisabled__c": false,
        "%vlocity_namespace%__IsRequiredForUpsert__c": false,
        "%vlocity_namespace%__MapId__c": "Quote Discount Extract - CreateCustom8531",
        "%vlocity_namespace%__UpsertKey__c": false,
        "Name": "Quote Discount Extract - Create",
        "VlocityDataPackType": "SObject",
        "VlocityRecordSObjectType": "%vlocity_namespace%__DRMapItem__c"
    }
]