[
    {
        "%vlocity_namespace%__DomainObjectAPIName__c": "json",
        "%vlocity_namespace%__DomainObjectCreationOrder__c": 0,
        "%vlocity_namespace%__DomainObjectFieldAPIName__c": "FrameContract",
        "%vlocity_namespace%__FilterGroup__c": 0,
        "%vlocity_namespace%__FilterOperator__c": "=",
        "%vlocity_namespace%__FilterValue__c": "Id",
        "%vlocity_namespace%__GlobalKey__c": "e7bb316e-f705-fc1b-5d7c-8e11e87447d7",
        "%vlocity_namespace%__InterfaceFieldAPIName__c": "Id",
        "%vlocity_namespace%__InterfaceObjectLookupOrder__c": 1,
        "%vlocity_namespace%__InterfaceObjectName__c": "Contract",
        "%vlocity_namespace%__IsDisabled__c": false,
        "%vlocity_namespace%__IsRequiredForUpsert__c": false,
        "%vlocity_namespace%__MapId__c": "ExtractFrameContractForActivationCustom3843",
        "%vlocity_namespace%__UpsertKey__c": false,
        "Name": "ExtractFrameContractForActivation",
        "VlocityDataPackType": "SObject",
        "VlocityRecordSObjectType": "%vlocity_namespace%__DRMapItem__c"
    },
    {
        "%vlocity_namespace%__DomainObjectAPIName__c": "Formula",
        "%vlocity_namespace%__DomainObjectCreationOrder__c": 0,
        "%vlocity_namespace%__DomainObjectFieldAPIName__c": "Formula",
        "%vlocity_namespace%__FormulaOrder__c": 1,
        "%vlocity_namespace%__FormulaResultPath__c": "isMasterAgreement",
        "%vlocity_namespace%__Formula__c": "IF(FrameContract:%vlocity_namespace%__OriginalContractId__c == null, true, false)",
        "%vlocity_namespace%__GlobalKey__c": "387f3e40-2b79-f076-7cca-1e35d97700f0",
        "%vlocity_namespace%__IsDisabled__c": false,
        "%vlocity_namespace%__IsRequiredForUpsert__c": false,
        "%vlocity_namespace%__MapId__c": "ExtractFrameContractForActivationCustom7289",
        "%vlocity_namespace%__UpsertKey__c": false,
        "Name": "ExtractFrameContractForActivation",
        "VlocityDataPackType": "SObject",
        "VlocityRecordSObjectType": "%vlocity_namespace%__DRMapItem__c"
    },
    {
        "%vlocity_namespace%__DomainObjectAPIName__c": "Formula",
        "%vlocity_namespace%__DomainObjectCreationOrder__c": 0,
        "%vlocity_namespace%__DomainObjectFieldAPIName__c": "Formula",
        "%vlocity_namespace%__FormulaOrder__c": 2,
        "%vlocity_namespace%__FormulaResultPath__c": "originalContractId",
        "%vlocity_namespace%__Formula__c": "IF(FrameContract:%vlocity_namespace%__OriginalContractId__c == null, null, FrameContract:%vlocity_namespace%__OriginalContractId__c)",
        "%vlocity_namespace%__GlobalKey__c": "221a3f71-ec30-830d-cbe2-2b0eb9d58b45",
        "%vlocity_namespace%__IsDisabled__c": false,
        "%vlocity_namespace%__IsRequiredForUpsert__c": false,
        "%vlocity_namespace%__MapId__c": "ExtractFrameContractForActivationCustom671",
        "%vlocity_namespace%__UpsertKey__c": false,
        "Name": "ExtractFrameContractForActivation",
        "VlocityDataPackType": "SObject",
        "VlocityRecordSObjectType": "%vlocity_namespace%__DRMapItem__c"
    },
    {
        "%vlocity_namespace%__DomainObjectAPIName__c": "json",
        "%vlocity_namespace%__DomainObjectCreationOrder__c": 1,
        "%vlocity_namespace%__DomainObjectFieldAPIName__c": "FrameContract:OptyId",
        "%vlocity_namespace%__GlobalKey__c": "80f4b7ca-4770-540a-27df-cf95c7d2c892",
        "%vlocity_namespace%__InterfaceFieldAPIName__c": "FrameContract:%vlocity_namespace%__OpportunityId__c",
        "%vlocity_namespace%__IsDisabled__c": false,
        "%vlocity_namespace%__IsRequiredForUpsert__c": false,
        "%vlocity_namespace%__MapId__c": "ExtractFrameContractForActivationCustom8596",
        "%vlocity_namespace%__UpsertKey__c": false,
        "Name": "ExtractFrameContractForActivation",
        "VlocityDataPackType": "SObject",
        "VlocityRecordSObjectType": "%vlocity_namespace%__DRMapItem__c"
    },
    {
        "%vlocity_namespace%__DomainObjectAPIName__c": "json",
        "%vlocity_namespace%__DomainObjectCreationOrder__c": 1,
        "%vlocity_namespace%__DomainObjectFieldAPIName__c": "FrameContract:OrderId",
        "%vlocity_namespace%__GlobalKey__c": "8811f9f6-1c22-80f7-a9a4-47baa2c97b93",
        "%vlocity_namespace%__InterfaceFieldAPIName__c": "FrameContract:%vlocity_namespace%__OrderId__c",
        "%vlocity_namespace%__IsDisabled__c": false,
        "%vlocity_namespace%__IsRequiredForUpsert__c": false,
        "%vlocity_namespace%__MapId__c": "ExtractFrameContractForActivationCustom3442",
        "%vlocity_namespace%__UpsertKey__c": false,
        "Name": "ExtractFrameContractForActivation",
        "VlocityDataPackType": "SObject",
        "VlocityRecordSObjectType": "%vlocity_namespace%__DRMapItem__c"
    },
    {
        "%vlocity_namespace%__DefaultValue__c": "false",
        "%vlocity_namespace%__DomainObjectAPIName__c": "json",
        "%vlocity_namespace%__DomainObjectCreationOrder__c": 1,
        "%vlocity_namespace%__DomainObjectFieldAPIName__c": "FrameContract:OriginalContractId",
        "%vlocity_namespace%__GlobalKey__c": "4b151c3c-cbf5-5f1a-11fb-c0dcc4c0cc4e",
        "%vlocity_namespace%__InterfaceFieldAPIName__c": "FrameContract:%vlocity_namespace%__OriginalContractId__c",
        "%vlocity_namespace%__IsDisabled__c": false,
        "%vlocity_namespace%__IsRequiredForUpsert__c": false,
        "%vlocity_namespace%__MapId__c": "ExtractFrameContractForActivationCustom757",
        "%vlocity_namespace%__UpsertKey__c": false,
        "Name": "ExtractFrameContractForActivation",
        "VlocityDataPackType": "SObject",
        "VlocityRecordSObjectType": "%vlocity_namespace%__DRMapItem__c"
    },
    {
        "%vlocity_namespace%__DomainObjectAPIName__c": "json",
        "%vlocity_namespace%__DomainObjectCreationOrder__c": 1,
        "%vlocity_namespace%__DomainObjectFieldAPIName__c": "FrameContract:QuoteId",
        "%vlocity_namespace%__GlobalKey__c": "476e68ac-5d26-cdf4-7c61-dd0291910959",
        "%vlocity_namespace%__InterfaceFieldAPIName__c": "FrameContract:%vlocity_namespace%__QuoteId__c",
        "%vlocity_namespace%__IsDisabled__c": false,
        "%vlocity_namespace%__IsRequiredForUpsert__c": false,
        "%vlocity_namespace%__MapId__c": "ExtractFrameContractForActivationCustom9395",
        "%vlocity_namespace%__UpsertKey__c": false,
        "Name": "ExtractFrameContractForActivation",
        "VlocityDataPackType": "SObject",
        "VlocityRecordSObjectType": "%vlocity_namespace%__DRMapItem__c"
    },
    {
        "%vlocity_namespace%__DomainObjectAPIName__c": "json",
        "%vlocity_namespace%__DomainObjectCreationOrder__c": 1,
        "%vlocity_namespace%__DomainObjectFieldAPIName__c": "isMasterAgreement",
        "%vlocity_namespace%__GlobalKey__c": "180b0c7d-32b6-72eb-e667-d0e79c2a3ac2",
        "%vlocity_namespace%__InterfaceFieldAPIName__c": "isMasterAgreement",
        "%vlocity_namespace%__IsDisabled__c": false,
        "%vlocity_namespace%__IsRequiredForUpsert__c": false,
        "%vlocity_namespace%__MapId__c": "ExtractFrameContractForActivationCustom8551",
        "%vlocity_namespace%__UpsertKey__c": false,
        "Name": "ExtractFrameContractForActivation",
        "VlocityDataPackType": "SObject",
        "VlocityRecordSObjectType": "%vlocity_namespace%__DRMapItem__c"
    },
    {
        "%vlocity_namespace%__DomainObjectAPIName__c": "json",
        "%vlocity_namespace%__DomainObjectCreationOrder__c": 1,
        "%vlocity_namespace%__DomainObjectFieldAPIName__c": "originalContractId",
        "%vlocity_namespace%__GlobalKey__c": "2b330957-28ab-e9e2-e8a2-f808085b26ce",
        "%vlocity_namespace%__InterfaceFieldAPIName__c": "originalContractId",
        "%vlocity_namespace%__IsDisabled__c": false,
        "%vlocity_namespace%__IsRequiredForUpsert__c": false,
        "%vlocity_namespace%__MapId__c": "ExtractFrameContractForActivationCustom8911",
        "%vlocity_namespace%__UpsertKey__c": false,
        "Name": "ExtractFrameContractForActivation",
        "VlocityDataPackType": "SObject",
        "VlocityRecordSObjectType": "%vlocity_namespace%__DRMapItem__c"
    }
]